,Nummer,Lid,Opsomming niveau 1,Opsomming niveau 2,Opsomming niveau 3,Zin,Brontekst,Versie,jci 1.3
0,Hoofdstuk1,Artikel1,,,,,"Allen die zich in Nederland bevinden, worden in gelijke gevallen gelijk behandeld. Discriminatie wegens godsdienst, levensovertuiging, politieke gezindheid, ras, geslacht of op welke grond dan ook, is niet toegestaan.",21-12-2018,jci1.3:c:BWBR0001840&hoofdstuk=1&artikel=1&z=2018-12-21&g=2018-12-21
1,Hoofdstuk1,Artikel2,Lid1,,,,De wet regelt wie Nederlander is.,21-12-2018,jci1.3:c:BWBR0001840&hoofdstuk=1&artikel=2&lid=1&z=2018-12-21&g=2018-12-21
2,Hoofdstuk1,Artikel2,Lid2,,,,De wet regelt de toelating en de uitzetting van vreemdelingen.,21-12-2018,jci1.3:c:BWBR0001840&hoofdstuk=1&artikel=2&lid=2&z=2018-12-21&g=2018-12-21
3,Hoofdstuk1,Artikel2,Lid3,,,,Uitlevering kan slechts geschieden krachtens verdrag. Verdere voorschriften omtrent uitlevering worden bij de wet gegeven.,21-12-2018,jci1.3:c:BWBR0001840&hoofdstuk=1&artikel=2&lid=3&z=2018-12-21&g=2018-12-21
4,Hoofdstuk1,Artikel2,Lid4,,,,"Ieder heeft het recht het land te verlaten, behoudens in de gevallen, bij de wet bepaald.",21-12-2018,jci1.3:c:BWBR0001840&hoofdstuk=1&artikel=2&lid=4&z=2018-12-21&g=2018-12-21
5,Hoofdstuk1,Artikel3,,,,,Alle Nederlanders zijn op gelijke voet in openbare dienst benoembaar.,21-12-2018,jci1.3:c:BWBR0001840&hoofdstuk=1&artikel=3&z=2018-12-21&g=2018-12-21
6,Hoofdstuk1,Artikel4,,,,,"Iedere Nederlander heeft gelijkelijk recht de leden van algemeen vertegenwoordigende organen te verkiezen alsmede tot lid van deze organen te worden verkozen, behoudens bij de wet gestelde beperkingen en uitzonderingen.",21-12-2018,jci1.3:c:BWBR0001840&hoofdstuk=1&artikel=4&z=2018-12-21&g=2018-12-21
7,Hoofdstuk1,Artikel5,,,,,Ieder heeft het recht verzoeken schriftelijk bij het bevoegd gezag in te dienen.,21-12-2018,jci1.3:c:BWBR0001840&hoofdstuk=1&artikel=5&z=2018-12-21&g=2018-12-21
8,Hoofdstuk1,Artikel6,Lid1,,,,"Ieder heeft het recht zijn godsdienst of levensovertuiging, individueel of in gemeenschap met anderen, vrij te belijden, behoudens ieders verantwoordelijkheid volgens de wet.",21-12-2018,jci1.3:c:BWBR0001840&hoofdstuk=1&artikel=6&lid=1&z=2018-12-21&g=2018-12-21
9,Hoofdstuk1,Artikel6,Lid2,,,,"De wet kan ter zake van de uitoefening van dit recht buiten gebouwen en besloten plaatsen regels stellen ter bescherming van de gezondheid, in het belang van het verkeer en ter bestrijding of voorkoming van wanordelijkheden.",21-12-2018,jci1.3:c:BWBR0001840&hoofdstuk=1&artikel=6&lid=2&z=2018-12-21&g=2018-12-21
10,Hoofdstuk1,Artikel7,Lid1,,,,"Niemand heeft voorafgaand verlof nodig om door de drukpers gedachten of gevoelens te openbaren, behoudens ieders verantwoordelijkheid volgens de wet.",21-12-2018,jci1.3:c:BWBR0001840&hoofdstuk=1&artikel=7&lid=1&z=2018-12-21&g=2018-12-21
11,Hoofdstuk1,Artikel7,Lid2,,,,De wet stelt regels omtrent radio en televisie. Er is geen voorafgaand toezicht op de inhoud van een radio- of televisieuitzending.,21-12-2018,jci1.3:c:BWBR0001840&hoofdstuk=1&artikel=7&lid=2&z=2018-12-21&g=2018-12-21
12,Hoofdstuk1,Artikel7,Lid3,,,,"Voor het openbaren van gedachten of gevoelens door andere dan in de voorgaande leden genoemde middelen heeft niemand voorafgaand verlof nodig wegens de inhoud daarvan, behoudens ieders verantwoordelijkheid volgens de wet. De wet kan het geven van vertoningen toegankelijk voor personen jonger dan zestien jaar regelen ter bescherming van de goede zeden.",21-12-2018,jci1.3:c:BWBR0001840&hoofdstuk=1&artikel=7&lid=3&z=2018-12-21&g=2018-12-21
13,Hoofdstuk1,Artikel7,Lid4,,,,De voorgaande leden zijn niet van toepassing op het maken van handelsreclame.,21-12-2018,jci1.3:c:BWBR0001840&hoofdstuk=1&artikel=7&lid=4&z=2018-12-21&g=2018-12-21
14,Hoofdstuk1,Artikel8,,,,,Het recht tot vereniging wordt erkend. Bij de wet kan dit recht worden beperkt in het belang van de openbare orde.,21-12-2018,jci1.3:c:BWBR0001840&hoofdstuk=1&artikel=8&z=2018-12-21&g=2018-12-21
15,Hoofdstuk1,Artikel9,Lid1,,,,"Het recht tot vergadering en betoging wordt erkend, behoudens ieders verantwoordelijkheid volgens de wet.",21-12-2018,jci1.3:c:BWBR0001840&hoofdstuk=1&artikel=9&lid=1&z=2018-12-21&g=2018-12-21
16,Hoofdstuk1,Artikel9,Lid2,,,,"De wet kan regels stellen ter bescherming van de gezondheid, in het belang van het verkeer en ter bestrijding of voorkoming van wanordelijkheden.",21-12-2018,jci1.3:c:BWBR0001840&hoofdstuk=1&artikel=9&lid=2&z=2018-12-21&g=2018-12-21
17,Hoofdstuk1,Artikel10,Lid1,,,,"Ieder heeft, behoudens bij of krachtens de wet te stellen beperkingen, recht op eerbiediging van zijn persoonlijke levenssfeer.",21-12-2018,jci1.3:c:BWBR0001840&hoofdstuk=1&artikel=10&lid=1&z=2018-12-21&g=2018-12-21
18,Hoofdstuk1,Artikel10,Lid2,,,,De wet stelt regels ter bescherming van de persoonlijke levenssfeer in verband met het vastleggen en verstrekken van persoonsgegevens.,21-12-2018,jci1.3:c:BWBR0001840&hoofdstuk=1&artikel=10&lid=2&z=2018-12-21&g=2018-12-21
19,Hoofdstuk1,Artikel10,Lid3,,,,"De wet stelt regels inzake de aanspraken van personen op kennisneming van over hen vastgelegde gegevens en van het gebruik dat daarvan wordt gemaakt, alsmede op verbetering van zodanige gegevens.",21-12-2018,jci1.3:c:BWBR0001840&hoofdstuk=1&artikel=10&lid=3&z=2018-12-21&g=2018-12-21
20,Hoofdstuk1,Artikel11,,,,,"Ieder heeft, behoudens bij of krachtens de wet te stellen beperkingen, recht op onaantastbaarheid van zijn lichaam.",21-12-2018,jci1.3:c:BWBR0001840&hoofdstuk=1&artikel=11&z=2018-12-21&g=2018-12-21
21,Hoofdstuk1,Artikel12,Lid1,,,,"Het binnentreden in een woning zonder toestemming van de bewoner is alleen geoorloofd in de gevallen bij of krachtens de wet bepaald, door hen die daartoe bij of krachtens de wet zijn aangewezen.",21-12-2018,jci1.3:c:BWBR0001840&hoofdstuk=1&artikel=12&lid=1&z=2018-12-21&g=2018-12-21
22,Hoofdstuk1,Artikel12,Lid2,,,,"Voor het binnentreden overeenkomstig het eerste lid zijn voorafgaande legitimatie en mededeling van het doel van het binnentreden vereist, behoudens bij de wet gestelde uitzonderingen.",21-12-2018,jci1.3:c:BWBR0001840&hoofdstuk=1&artikel=12&lid=2&z=2018-12-21&g=2018-12-21
23,Hoofdstuk1,Artikel12,Lid3,,,,"Aan de bewoner wordt zo spoedig mogelijk een schriftelijk verslag van het binnentreden verstrekt. Indien het binnentreden in het belang van de nationale veiligheid of dat van de strafvordering heeft plaatsgevonden, kan volgens bij de wet te stellen regels de verstrekking van het verslag worden uitgesteld. In de bij de wet te bepalen gevallen kan de verstrekking achterwege worden gelaten, indien het belang van de nationale veiligheid zich tegen verstrekking blijvend verzet.",21-12-2018,jci1.3:c:BWBR0001840&hoofdstuk=1&artikel=12&lid=3&z=2018-12-21&g=2018-12-21
24,Hoofdstuk1,Artikel13,Lid1,,,,"Het briefgeheim is onschendbaar, behalve, in de gevallen bij de wet bepaald, op last van de rechter.",21-12-2018,jci1.3:c:BWBR0001840&hoofdstuk=1&artikel=13&lid=1&z=2018-12-21&g=2018-12-21
25,Hoofdstuk1,Artikel13,Lid2,,,,"Het telefoon- en telegraafgeheim is onschendbaar, behalve, in de gevallen bij de wet bepaald, door of met machtiging van hen die daartoe bij de wet zijn aangewezen.",21-12-2018,jci1.3:c:BWBR0001840&hoofdstuk=1&artikel=13&lid=2&z=2018-12-21&g=2018-12-21
26,Hoofdstuk1,Artikel14,Lid1,,,,"Onteigening kan alleen geschieden in het algemeen belang en tegen vooraf verzekerde schadeloosstelling, een en ander naar bij of krachtens de wet te stellen voorschriften.",21-12-2018,jci1.3:c:BWBR0001840&hoofdstuk=1&artikel=14&lid=1&z=2018-12-21&g=2018-12-21
27,Hoofdstuk1,Artikel14,Lid2,,,,"De schadeloosstelling behoeft niet vooraf verzekerd te zijn, wanneer in geval van nood onverwijld onteigening geboden is.",21-12-2018,jci1.3:c:BWBR0001840&hoofdstuk=1&artikel=14&lid=2&z=2018-12-21&g=2018-12-21
28,Hoofdstuk1,Artikel14,Lid3,,,,"In de gevallen bij of krachtens de wet bepaald bestaat recht op schadeloosstelling of tegemoetkoming in de schade, indien in het algemeen belang eigendom door het bevoegd gezag wordt vernietigd of onbruikbaar gemaakt of de uitoefening van het eigendomsrecht wordt beperkt.",21-12-2018,jci1.3:c:BWBR0001840&hoofdstuk=1&artikel=14&lid=3&z=2018-12-21&g=2018-12-21
29,Hoofdstuk1,Artikel15,Lid1,,,,Buiten de gevallen bij of krachtens de wet bepaald mag niemand zijn vrijheid worden ontnomen.,21-12-2018,jci1.3:c:BWBR0001840&hoofdstuk=1&artikel=15&lid=1&z=2018-12-21&g=2018-12-21
30,Hoofdstuk1,Artikel15,Lid2,,,,"Hij aan wie anders dan op rechterlijk bevel zijn vrijheid is ontnomen, kan aan de rechter zijn invrijheidstelling verzoeken. Hij wordt in dat geval door de rechter gehoord binnen een bij de wet te bepalen termijn. De rechter gelast de onmiddellijke invrijheidstelling, indien hij de vrijheidsontneming onrechtmatig oordeelt.",21-12-2018,jci1.3:c:BWBR0001840&hoofdstuk=1&artikel=15&lid=2&z=2018-12-21&g=2018-12-21
31,Hoofdstuk1,Artikel15,Lid3,,,,"De berechting van hem aan wie met het oog daarop zijn vrijheid is ontnomen, vindt binnen een redelijke termijn plaats.",21-12-2018,jci1.3:c:BWBR0001840&hoofdstuk=1&artikel=15&lid=3&z=2018-12-21&g=2018-12-21
32,Hoofdstuk1,Artikel15,Lid4,,,,"Hij aan wie rechtmatig zijn vrijheid is ontnomen, kan worden beperkt in de uitoefening van grondrechten voor zover deze zich niet met de vrijheidsontneming verdraagt.",21-12-2018,jci1.3:c:BWBR0001840&hoofdstuk=1&artikel=15&lid=4&z=2018-12-21&g=2018-12-21
33,Hoofdstuk1,Artikel16,,,,,Geen feit is strafbaar dan uit kracht van een daaraan voorafgegane wettelijke strafbepaling.,21-12-2018,jci1.3:c:BWBR0001840&hoofdstuk=1&artikel=16&z=2018-12-21&g=2018-12-21
34,Hoofdstuk1,Artikel17,,,,,Niemand kan tegen zijn wil worden afgehouden van de rechter die de wet hem toekent.,21-12-2018,jci1.3:c:BWBR0001840&hoofdstuk=1&artikel=17&z=2018-12-21&g=2018-12-21
35,Hoofdstuk1,Artikel18,Lid1,,,,Ieder kan zich in rechte en in administratief beroep doen bijstaan.,21-12-2018,jci1.3:c:BWBR0001840&hoofdstuk=1&artikel=18&lid=1&z=2018-12-21&g=2018-12-21
36,Hoofdstuk1,Artikel18,Lid2,,,,De wet stelt regels omtrent het verlenen van rechtsbijstand aan minder draagkrachtigen.,21-12-2018,jci1.3:c:BWBR0001840&hoofdstuk=1&artikel=18&lid=2&z=2018-12-21&g=2018-12-21
37,Hoofdstuk1,Artikel19,Lid1,,,,Bevordering van voldoende werkgelegenheid is voorwerp van zorg der overheid.,21-12-2018,jci1.3:c:BWBR0001840&hoofdstuk=1&artikel=19&lid=1&z=2018-12-21&g=2018-12-21
38,Hoofdstuk1,Artikel19,Lid2,,,,"De wet stelt regels omtrent de rechtspositie van hen die arbeid verrichten en omtrent hun bescherming daarbij, alsmede omtrent medezeggenschap.",21-12-2018,jci1.3:c:BWBR0001840&hoofdstuk=1&artikel=19&lid=2&z=2018-12-21&g=2018-12-21
39,Hoofdstuk1,Artikel19,Lid3,,,,"Het recht van iedere Nederlander op vrije keuze van arbeid wordt erkend, behoudens de beperkingen bij of krachtens de wet gesteld.",21-12-2018,jci1.3:c:BWBR0001840&hoofdstuk=1&artikel=19&lid=3&z=2018-12-21&g=2018-12-21
40,Hoofdstuk1,Artikel20,Lid1,,,,De bestaanszekerheid der bevolking en spreiding van welvaart zijn voorwerp van zorg der overheid.,21-12-2018,jci1.3:c:BWBR0001840&hoofdstuk=1&artikel=20&lid=1&z=2018-12-21&g=2018-12-21
41,Hoofdstuk1,Artikel20,Lid2,,,,De wet stelt regels omtrent de aanspraken op sociale zekerheid.,21-12-2018,jci1.3:c:BWBR0001840&hoofdstuk=1&artikel=20&lid=2&z=2018-12-21&g=2018-12-21
42,Hoofdstuk1,Artikel20,Lid3,,,,"Nederlanders hier te lande, die niet in het bestaan kunnen voorzien, hebben een bij de wet te regelen recht op bijstand van overheidswege.",21-12-2018,jci1.3:c:BWBR0001840&hoofdstuk=1&artikel=20&lid=3&z=2018-12-21&g=2018-12-21
43,Hoofdstuk1,Artikel21,,,,,De zorg van de overheid is gericht op de bewoonbaarheid van het land en de bescherming en verbetering van het leefmilieu.,21-12-2018,jci1.3:c:BWBR0001840&hoofdstuk=1&artikel=21&z=2018-12-21&g=2018-12-21
44,Hoofdstuk1,Artikel22,Lid1,,,,De overheid treft maatregelen ter bevordering van de volksgezondheid.,21-12-2018,jci1.3:c:BWBR0001840&hoofdstuk=1&artikel=22&lid=1&z=2018-12-21&g=2018-12-21
45,Hoofdstuk1,Artikel22,Lid2,,,,Bevordering van voldoende woongelegenheid is voorwerp van zorg der overheid.,21-12-2018,jci1.3:c:BWBR0001840&hoofdstuk=1&artikel=22&lid=2&z=2018-12-21&g=2018-12-21
46,Hoofdstuk1,Artikel22,Lid3,,,,Zij schept voorwaarden voor maatschappelijke en culturele ontplooiing en voor vrijetijdsbesteding.,21-12-2018,jci1.3:c:BWBR0001840&hoofdstuk=1&artikel=22&lid=3&z=2018-12-21&g=2018-12-21
47,Hoofdstuk1,Artikel23,Lid1,,,,Het onderwijs is een voorwerp van de aanhoudende zorg der regering.,21-12-2018,jci1.3:c:BWBR0001840&hoofdstuk=1&artikel=23&lid=1&z=2018-12-21&g=2018-12-21
48,Hoofdstuk1,Artikel23,Lid2,,,,"Het geven van onderwijs is vrij, behoudens het toezicht van de overheid en, voor wat bij de wet aangewezen vormen van onderwijs betreft, het onderzoek naar de bekwaamheid en de zedelijkheid van hen die onderwijs geven, een en ander bij de wet te regelen.",21-12-2018,jci1.3:c:BWBR0001840&hoofdstuk=1&artikel=23&lid=2&z=2018-12-21&g=2018-12-21
49,Hoofdstuk1,Artikel23,Lid3,,,,"Het openbaar onderwijs wordt, met eerbiediging van ieders godsdienst of levensovertuiging, bij de wet geregeld.",21-12-2018,jci1.3:c:BWBR0001840&hoofdstuk=1&artikel=23&lid=3&z=2018-12-21&g=2018-12-21
50,Hoofdstuk1,Artikel23,Lid4,,,,"In elke gemeente en in elk van de openbare lichamen, bedoeld in , wordt van overheidswege voldoend openbaar algemeen vormend lager onderwijs gegeven in een genoegzaam aantal openbare scholen. Volgens bij de wet te stellen regels kan afwijking van deze bepaling worden toegelaten, mits tot het ontvangen van zodanig onderwijs gelegenheid wordt gegeven, al dan niet in een openbare school.artikel 132a",21-12-2018,jci1.3:c:BWBR0001840&hoofdstuk=1&artikel=23&lid=4&z=2018-12-21&g=2018-12-21
51,Hoofdstuk1,Artikel23,Lid5,,,,"De eisen van deugdelijkheid, aan het geheel of ten dele uit de openbare kas te bekostigen onderwijs te stellen, worden bij de wet geregeld, met inachtneming, voor zover het bijzonder onderwijs betreft, van de vrijheid van richting.",21-12-2018,jci1.3:c:BWBR0001840&hoofdstuk=1&artikel=23&lid=5&z=2018-12-21&g=2018-12-21
52,Hoofdstuk1,Artikel23,Lid6,,,,"Deze eisen worden voor het algemeen vormend lager onderwijs zodanig geregeld, dat de deugdelijkheid van het geheel uit de openbare kas bekostigd bijzonder onderwijs en van het openbaar onderwijs even afdoende wordt gewaarborgd. Bij die regeling wordt met name de vrijheid van het bijzonder onderwijs betreffende de keuze der leermiddelen en de aanstelling der onderwijzers geerbiedigd.",21-12-2018,jci1.3:c:BWBR0001840&hoofdstuk=1&artikel=23&lid=6&z=2018-12-21&g=2018-12-21
53,Hoofdstuk1,Artikel23,Lid7,,,,"Het bijzonder algemeen vormend lager onderwijs, dat aan de bij de wet te stellen voorwaarden voldoet, wordt naar dezelfde maatstaf als het openbaar onderwijs uit de openbare kas bekostigd. De wet stelt de voorwaarden vast, waarop voor het bijzonder algemeen vormend middelbaar en voorbereidend hoger onderwijs bijdragen uit de openbare kas worden verleend.",21-12-2018,jci1.3:c:BWBR0001840&hoofdstuk=1&artikel=23&lid=7&z=2018-12-21&g=2018-12-21
54,Hoofdstuk1,Artikel23,Lid8,,,,De regering doet jaarlijks van de staat van het onderwijs verslag aan de Staten-Generaal.,21-12-2018,jci1.3:c:BWBR0001840&hoofdstuk=1&artikel=23&lid=8&z=2018-12-21&g=2018-12-21
55,Hoofdstuk2,Paragraaf1,Artikel24,,,,"Het koningschap wordt erfelijk vervuld door de wettige opvolgers van Koning Willem I, Prins van Oranje-Nassau.",21-12-2018,jci1.3:c:BWBR0001840&hoofdstuk=2&paragraaf=1&artikel=24&z=2018-12-21&g=2018-12-21
56,Hoofdstuk2,Paragraaf1,Artikel25,,,,"Het koningschap gaat bij overlijden van de Koning krachtens erfopvolging over op zijn wettige nakomelingen, waarbij het oudste kind voorrang heeft, met plaatsvervulling volgens dezelfde regel. Bij gebreke van eigen nakomelingen gaat het koningschap op gelijke wijze over op de wettige nakomelingen eerst van zijn ouder, dan van zijn grootouder, in de lijn van erfopvolging, voor zover de overleden Koning niet verder bestaand dan in de derde graad van bloedverwantschap.",21-12-2018,jci1.3:c:BWBR0001840&hoofdstuk=2&paragraaf=1&artikel=25&z=2018-12-21&g=2018-12-21
57,Hoofdstuk2,Paragraaf1,Artikel26,,,,"Het kind, waarvan een vrouw zwanger is op het ogenblik van het overlijden van de Koning, wordt voor de erfopvolging als reeds geboren aangemerkt. Komt het dood ter wereld, dan wordt het geacht nooit te hebben bestaan.",21-12-2018,jci1.3:c:BWBR0001840&hoofdstuk=2&paragraaf=1&artikel=26&z=2018-12-21&g=2018-12-21
58,Hoofdstuk2,Paragraaf1,Artikel27,,,,Afstand van het koningschap leidt tot erfopvolging overeenkomstig de regels in de voorgaande artikelen gesteld. Na de afstand geboren kinderen en hun nakomelingen zijn van de erfopvolging uitgesloten.,21-12-2018,jci1.3:c:BWBR0001840&hoofdstuk=2&paragraaf=1&artikel=27&z=2018-12-21&g=2018-12-21
59,Hoofdstuk2,Paragraaf1,Artikel28,Lid1,,,"De Koning, een huwelijk aangaande buiten bij de wet verleende toestemming, doet daardoor afstand van het koningschap.",21-12-2018,jci1.3:c:BWBR0001840&hoofdstuk=2&paragraaf=1&artikel=28&lid=1&z=2018-12-21&g=2018-12-21
60,Hoofdstuk2,Paragraaf1,Artikel28,Lid2,,,"Gaat iemand die het koningschap van de Koning kan berven een zodanig huwelijk aan, dan is hij met de uit dit huwelijk geboren kinderen en hun nakomelingen van de erfopvolging uitgesloten.",21-12-2018,jci1.3:c:BWBR0001840&hoofdstuk=2&paragraaf=1&artikel=28&lid=2&z=2018-12-21&g=2018-12-21
61,Hoofdstuk2,Paragraaf1,Artikel28,Lid3,,,"De Staten-Generaal beraadslagen en besluiten ter zake van een voorstel van wet, strekkende tot het verlenen van toestemming, in verenigde vergadering.",21-12-2018,jci1.3:c:BWBR0001840&hoofdstuk=2&paragraaf=1&artikel=28&lid=3&z=2018-12-21&g=2018-12-21
62,Hoofdstuk2,Paragraaf1,Artikel29,Lid1,,,"Wanneer uitzonderlijke omstandigheden daartoe nopen, kunnen bij een wet een of meer personen van de erfopvolging worden uitgesloten.",21-12-2018,jci1.3:c:BWBR0001840&hoofdstuk=2&paragraaf=1&artikel=29&lid=1&z=2018-12-21&g=2018-12-21
63,Hoofdstuk2,Paragraaf1,Artikel29,Lid2,,,Het voorstel daartoe wordt door of vanwege de Koning ingediend. De Staten-Generaal beraadslagen en besluiten ter zake in verenigde vergadering. Zij kunnen het voorstel alleen aannemen met ten minste twee derden van het aantal uitgebrachte stemmen.,21-12-2018,jci1.3:c:BWBR0001840&hoofdstuk=2&paragraaf=1&artikel=29&lid=2&z=2018-12-21&g=2018-12-21
64,Hoofdstuk2,Paragraaf1,Artikel30,Lid1,,,"Wanneer vooruitzicht bestaat dat een opvolger zal ontbreken, kan deze worden benoemd bij een wet. Het voorstel wordt door of vanwege de Koning ingediend. Na de indiening van het voorstel worden de kamers ontbonden. De nieuwe kamers beraadslagen en besluiten ter zake in verenigde vergadering. Zij kunnen het voorstel alleen aannemen met ten minste twee derden van het aantal uitgebrachte stemmen.",21-12-2018,jci1.3:c:BWBR0001840&hoofdstuk=2&paragraaf=1&artikel=30&lid=1&z=2018-12-21&g=2018-12-21
65,Hoofdstuk2,Paragraaf1,Artikel30,Lid2,,,"Indien bij overlijden van de Koning of bij afstand van het koningschap een opvolger ontbreekt, worden de kamers ontbonden. De nieuwe kamers komen binnen vier maanden na het overlijden of de afstand in verenigde vergadering bijeen ten einde te besluiten omtrent de benoeming van een Koning. Zij kunnen een opvolger alleen benoemen met ten minste twee derden van het aantal uitgebrachte stemmen.",21-12-2018,jci1.3:c:BWBR0001840&hoofdstuk=2&paragraaf=1&artikel=30&lid=2&z=2018-12-21&g=2018-12-21
66,Hoofdstuk2,Paragraaf1,Artikel31,Lid1,,,Een benoemde Koning kan krachtens erfopvolging alleen worden opgevolgd door zijn wettige nakomelingen.,21-12-2018,jci1.3:c:BWBR0001840&hoofdstuk=2&paragraaf=1&artikel=31&lid=1&z=2018-12-21&g=2018-12-21
67,Hoofdstuk2,Paragraaf1,Artikel31,Lid2,,,"De bepalingen omtrent de erfopvolging en het eerste lid van dit artikel zijn van overeenkomstige toepassing op een benoemde opvolger, zolang deze nog geen Koning is.",21-12-2018,jci1.3:c:BWBR0001840&hoofdstuk=2&paragraaf=1&artikel=31&lid=2&z=2018-12-21&g=2018-12-21
68,Hoofdstuk2,Paragraaf1,Artikel32,,,,"Nadat de Koning de uitoefening van het koninklijk gezag heeft aangevangen, wordt hij zodra mogelijk bedigd en ingehuldigd in de hoofdstad Amsterdam in een openbare verenigde vergadering van de Staten-Generaal. Hij zweert of belooft trouw aan de Grondwet en een getrouwe vervulling van zijn ambt. De wet stelt nadere regels vast.",21-12-2018,jci1.3:c:BWBR0001840&hoofdstuk=2&paragraaf=1&artikel=32&z=2018-12-21&g=2018-12-21
69,Hoofdstuk2,Paragraaf1,Artikel33,,,,"De Koning oefent het koninklijk gezag eerst uit, nadat hij de leeftijd van achttien jaar heeft bereikt.",21-12-2018,jci1.3:c:BWBR0001840&hoofdstuk=2&paragraaf=1&artikel=33&z=2018-12-21&g=2018-12-21
70,Hoofdstuk2,Paragraaf1,Artikel34,,,,De wet regelt het ouderlijk gezag en de voogdij over de minderjarige Koning en het toezicht daarop. De Staten-Generaal beraadslagen en besluiten ter zake in verenigde vergadering.,21-12-2018,jci1.3:c:BWBR0001840&hoofdstuk=2&paragraaf=1&artikel=34&z=2018-12-21&g=2018-12-21
71,Hoofdstuk2,Paragraaf1,Artikel35,Lid1,,,"Wanneer de ministerraad van oordeel is dat de Koning buiten staat is het koninklijk gezag uit te oefenen, bericht hij dit onder overlegging van het daartoe gevraagde advies van de Raad van State aan de Staten-Generaal, die daarop in verenigde vergadering bijeenkomen.",21-12-2018,jci1.3:c:BWBR0001840&hoofdstuk=2&paragraaf=1&artikel=35&lid=1&z=2018-12-21&g=2018-12-21
72,Hoofdstuk2,Paragraaf1,Artikel35,Lid2,,,"Delen de Staten-Generaal dit oordeel, dan verklaren zij dat de Koning buiten staat is het koninklijk gezag uit te oefenen. Deze verklaring wordt bekend gemaakt op last van de voorzitter der vergadering en treedt terstond in werking.",21-12-2018,jci1.3:c:BWBR0001840&hoofdstuk=2&paragraaf=1&artikel=35&lid=2&z=2018-12-21&g=2018-12-21
73,Hoofdstuk2,Paragraaf1,Artikel35,Lid3,,,"Zodra de Koning weer in staat is het koninklijk gezag uit te oefenen, wordt dit bij de wet verklaard. De Staten-Generaal beraadslagen en besluiten ter zake in verenigde vergadering. Terstond na de bekendmaking van deze wet hervat de Koning de uitoefening van het koninklijk gezag.",21-12-2018,jci1.3:c:BWBR0001840&hoofdstuk=2&paragraaf=1&artikel=35&lid=3&z=2018-12-21&g=2018-12-21
74,Hoofdstuk2,Paragraaf1,Artikel35,Lid4,,,De wet regelt zo nodig het toezicht over de persoon van de Koning indien hij buiten staat is verklaard het koninklijk gezag uit te oefenen. De Staten-Generaal beraadslagen en besluiten ter zake in verenigde vergadering.,21-12-2018,jci1.3:c:BWBR0001840&hoofdstuk=2&paragraaf=1&artikel=35&lid=4&z=2018-12-21&g=2018-12-21
75,Hoofdstuk2,Paragraaf1,Artikel36,,,,"De Koning kan de uitoefening van het koninklijk gezag tijdelijk neerleggen en die uitoefening hervatten krachtens een wet, waarvan het voorstel door of vanwege hem wordt ingediend. De Staten-Generaal beraadslagen en besluiten ter zake in verenigde vergadering.",21-12-2018,jci1.3:c:BWBR0001840&hoofdstuk=2&paragraaf=1&artikel=36&z=2018-12-21&g=2018-12-21
76,Hoofdstuk2,Paragraaf1,Artikel37,Lid1,,,Het koninklijk gezag wordt uitgeoefend door een regent:,21-12-2018,jci1.3:c:BWBR0001840&hoofdstuk=2&paragraaf=1&artikel=37&lid=1&z=2018-12-21&g=2018-12-21
77,Hoofdstuk2,Paragraaf1,Artikel37,Lid1,Onderdeela,,zolang de Koning de leeftijd van achttien jaar niet heeft bereikt;,21-12-2018,jci1.3:c:BWBR0001840&hoofdstuk=2&paragraaf=1&artikel=37&lid=1&o=a&z=2018-12-21&g=2018-12-21
78,Hoofdstuk2,Paragraaf1,Artikel37,Lid1,Onderdeelb,,indien een nog niet geboren kind tot het koningschap geroepen kan zijn;,21-12-2018,jci1.3:c:BWBR0001840&hoofdstuk=2&paragraaf=1&artikel=37&lid=1&o=b&z=2018-12-21&g=2018-12-21
79,Hoofdstuk2,Paragraaf1,Artikel37,Lid1,Onderdeelc,,indien de Koning buiten staat is verklaard het koninklijk gezag uit te oefenen;,21-12-2018,jci1.3:c:BWBR0001840&hoofdstuk=2&paragraaf=1&artikel=37&lid=1&o=c&z=2018-12-21&g=2018-12-21
80,Hoofdstuk2,Paragraaf1,Artikel37,Lid1,Onderdeeld,,indien de Koning de uitoefening van het koninklijk gezag tijdelijk heeft neergelegd;,21-12-2018,jci1.3:c:BWBR0001840&hoofdstuk=2&paragraaf=1&artikel=37&lid=1&o=d&z=2018-12-21&g=2018-12-21
81,Hoofdstuk2,Paragraaf1,Artikel37,Lid1,Onderdeele,,zolang na het overlijden van de Koning of na diens afstand van het koningschap een opvolger ontbreekt.,21-12-2018,jci1.3:c:BWBR0001840&hoofdstuk=2&paragraaf=1&artikel=37&lid=1&o=e&z=2018-12-21&g=2018-12-21
82,Hoofdstuk2,Paragraaf1,Artikel37,Lid2,,,De regent wordt benoemd bij de wet. De Staten-Generaal beraadslagen en besluiten ter zake in verenigde vergadering.,21-12-2018,jci1.3:c:BWBR0001840&hoofdstuk=2&paragraaf=1&artikel=37&lid=2&z=2018-12-21&g=2018-12-21
83,Hoofdstuk2,Paragraaf1,Artikel37,Lid3,,,"In de gevallen, genoemd in het eerste lid onder c en d, is de nakomeling van de Koning die zijn vermoedelijke opvolger is, van rechtswege regent indien hij de leeftijd van achttien jaar heeft bereikt.",21-12-2018,jci1.3:c:BWBR0001840&hoofdstuk=2&paragraaf=1&artikel=37&lid=3&z=2018-12-21&g=2018-12-21
84,Hoofdstuk2,Paragraaf1,Artikel37,Lid4,,,"De regent zweert of belooft trouw aan de Grondwet en een getrouwe vervulling van zijn ambt, in een verenigde vergadering van de Staten-Generaal. De wet geeft nadere regels omtrent het regentschap en kan voorzien in de opvolging en de vervanging daarin. De Staten-Generaal beraadslagen en besluiten ter zake in verenigde vergadering.",21-12-2018,jci1.3:c:BWBR0001840&hoofdstuk=2&paragraaf=1&artikel=37&lid=4&z=2018-12-21&g=2018-12-21
85,Hoofdstuk2,Paragraaf1,Artikel37,Lid5,,,Op de regent zijn de  en  van overeenkomstige toepassing.artikelen 35,21-12-2018,jci1.3:c:BWBR0001840&hoofdstuk=2&paragraaf=1&artikel=37&lid=5&z=2018-12-21&g=2018-12-21
86,Hoofdstuk2,Paragraaf1,Artikel38,,,,"Zolang niet in de uitoefening van het koninklijk gezag is voorzien, wordt dit uitgeoefend door de Raad van State.",21-12-2018,jci1.3:c:BWBR0001840&hoofdstuk=2&paragraaf=1&artikel=38&z=2018-12-21&g=2018-12-21
87,Hoofdstuk2,Paragraaf1,Artikel39,,,,"De wet regelt, wie lid is van het koninklijk huis.",21-12-2018,jci1.3:c:BWBR0001840&hoofdstuk=2&paragraaf=1&artikel=39&z=2018-12-21&g=2018-12-21
88,Hoofdstuk2,Paragraaf1,Artikel40,Lid1,,,De Koning ontvangt jaarlijks ten laste van het Rijk uitkeringen naar regels bij de wet te stellen. Deze wet bepaalt aan welke andere leden van het koninklijk huis uitkeringen ten laste van het Rijk worden toegekend en regelt deze uitkeringen.,21-12-2018,jci1.3:c:BWBR0001840&hoofdstuk=2&paragraaf=1&artikel=40&lid=1&z=2018-12-21&g=2018-12-21
89,Hoofdstuk2,Paragraaf1,Artikel40,Lid2,,,"De door hen ontvangen uitkeringen ten laste van het Rijk, alsmede de vermogensbestanddelen welke dienstbaar zijn aan de uitoefening van hun functie, zijn vrij van persoonlijke belastingen. Voorts is hetgeen de Koning of zijn vermoedelijke opvolger krachtens erfrecht of door schenking verkrijgt van een lid van het koninklijk huis vrij van de rechten van successie, overgang en schenking. Verdere vrijdom van belasting kan bij de wet worden verleend.",21-12-2018,jci1.3:c:BWBR0001840&hoofdstuk=2&paragraaf=1&artikel=40&lid=2&z=2018-12-21&g=2018-12-21
90,Hoofdstuk2,Paragraaf1,Artikel40,Lid3,,,De kamers der Staten-Generaal kunnen voorstellen van in de vorige leden bedoelde wetten alleen aannemen met ten minste twee derden van het aantal uitgebrachte stemmen.,21-12-2018,jci1.3:c:BWBR0001840&hoofdstuk=2&paragraaf=1&artikel=40&lid=3&z=2018-12-21&g=2018-12-21
91,Hoofdstuk2,Paragraaf1,Artikel41,,,,"De Koning richt, met inachtneming van het openbaar belang, zijn Huis in.",21-12-2018,jci1.3:c:BWBR0001840&hoofdstuk=2&paragraaf=1&artikel=41&z=2018-12-21&g=2018-12-21
92,Hoofdstuk2,Paragraaf2,Artikel42,Lid1,,,De regering wordt gevormd door de Koning en de ministers.,21-12-2018,jci1.3:c:BWBR0001840&hoofdstuk=2&paragraaf=2&artikel=42&lid=1&z=2018-12-21&g=2018-12-21
93,Hoofdstuk2,Paragraaf2,Artikel42,Lid2,,,De Koning is onschendbaar; de ministers zijn verantwoordelijk.,21-12-2018,jci1.3:c:BWBR0001840&hoofdstuk=2&paragraaf=2&artikel=42&lid=2&z=2018-12-21&g=2018-12-21
94,Hoofdstuk2,Paragraaf2,Artikel43,,,,De minister-president en de overige ministers worden bij koninklijk besluit benoemd en ontslagen.,21-12-2018,jci1.3:c:BWBR0001840&hoofdstuk=2&paragraaf=2&artikel=43&z=2018-12-21&g=2018-12-21
95,Hoofdstuk2,Paragraaf2,Artikel44,Lid1,,,Bij koninklijk besluit worden ministeries ingesteld. Zij staan onder leiding van een minister.,21-12-2018,jci1.3:c:BWBR0001840&hoofdstuk=2&paragraaf=2&artikel=44&lid=1&z=2018-12-21&g=2018-12-21
96,Hoofdstuk2,Paragraaf2,Artikel44,Lid2,,,Ook kunnen ministers worden benoemd die niet belast zijn met de leiding van een ministerie.,21-12-2018,jci1.3:c:BWBR0001840&hoofdstuk=2&paragraaf=2&artikel=44&lid=2&z=2018-12-21&g=2018-12-21
97,Hoofdstuk2,Paragraaf2,Artikel45,Lid1,,,De ministers vormen te zamen de ministerraad.,21-12-2018,jci1.3:c:BWBR0001840&hoofdstuk=2&paragraaf=2&artikel=45&lid=1&z=2018-12-21&g=2018-12-21
98,Hoofdstuk2,Paragraaf2,Artikel45,Lid2,,,De minister-president is voorzitter van de ministerraad.,21-12-2018,jci1.3:c:BWBR0001840&hoofdstuk=2&paragraaf=2&artikel=45&lid=2&z=2018-12-21&g=2018-12-21
99,Hoofdstuk2,Paragraaf2,Artikel45,Lid3,,,De ministerraad beraadslaagt en besluit over het algemeen regeringsbeleid en bevordert de eenheid van dat beleid.,21-12-2018,jci1.3:c:BWBR0001840&hoofdstuk=2&paragraaf=2&artikel=45&lid=3&z=2018-12-21&g=2018-12-21
100,Hoofdstuk2,Paragraaf2,Artikel46,Lid1,,,Bij koninklijk besluit kunnen staatssecretarissen worden benoemd en ontslagen.,21-12-2018,jci1.3:c:BWBR0001840&hoofdstuk=2&paragraaf=2&artikel=46&lid=1&z=2018-12-21&g=2018-12-21
101,Hoofdstuk2,Paragraaf2,Artikel46,Lid2,,,"Een staatssecretaris treedt in de gevallen waarin de minister het nodig acht en met inachtneming van diens aanwijzingen, in zijn plaats als minister op. De staatssecretaris is uit dien hoofde verantwoordelijk, onverminderd de verantwoordelijkheid van de minister.",21-12-2018,jci1.3:c:BWBR0001840&hoofdstuk=2&paragraaf=2&artikel=46&lid=2&z=2018-12-21&g=2018-12-21
102,Hoofdstuk2,Paragraaf2,Artikel47,,,,Alle wetten en koninklijke besluiten worden door de Koning en door een of meer ministers of staatssecretarissen ondertekend.,21-12-2018,jci1.3:c:BWBR0001840&hoofdstuk=2&paragraaf=2&artikel=47&z=2018-12-21&g=2018-12-21
103,Hoofdstuk2,Paragraaf2,Artikel48,,,,"Het koninklijk besluit waarbij de minister-president wordt benoemd, wordt mede door hem ondertekend. De koninklijke besluiten waarbij de overige ministers en de staatssecretarissen worden benoemd of ontslagen, worden mede door de minister-president ondertekend.",21-12-2018,jci1.3:c:BWBR0001840&hoofdstuk=2&paragraaf=2&artikel=48&z=2018-12-21&g=2018-12-21
104,Hoofdstuk2,Paragraaf2,Artikel49,,,,"Op de wijze bij de wet voorgeschreven leggen de ministers en de staatssecretarissen bij de aanvaarding van hun ambt ten overstaan van de Koning een eed, dan wel verklaring en belofte, van zuivering af en zweren of beloven zij trouw aan de Grondwet en een getrouwe vervulling van hun ambt.",21-12-2018,jci1.3:c:BWBR0001840&hoofdstuk=2&paragraaf=2&artikel=49&z=2018-12-21&g=2018-12-21
105,Hoofdstuk3,Paragraaf1,Artikel50,,,,De Staten-Generaal vertegenwoordigen het gehele Nederlandse volk.,21-12-2018,jci1.3:c:BWBR0001840&hoofdstuk=3&paragraaf=1&artikel=50&z=2018-12-21&g=2018-12-21
106,Hoofdstuk3,Paragraaf1,Artikel51,Lid1,,,De Staten-Generaal bestaan uit de Tweede Kamer en de Eerste Kamer.,21-12-2018,jci1.3:c:BWBR0001840&hoofdstuk=3&paragraaf=1&artikel=51&lid=1&z=2018-12-21&g=2018-12-21
107,Hoofdstuk3,Paragraaf1,Artikel51,Lid2,,,De Tweede Kamer bestaat uit honderdvijftig leden.,21-12-2018,jci1.3:c:BWBR0001840&hoofdstuk=3&paragraaf=1&artikel=51&lid=2&z=2018-12-21&g=2018-12-21
108,Hoofdstuk3,Paragraaf1,Artikel51,Lid3,,,De Eerste Kamer bestaat uit vijfenzeventig leden.,21-12-2018,jci1.3:c:BWBR0001840&hoofdstuk=3&paragraaf=1&artikel=51&lid=3&z=2018-12-21&g=2018-12-21
109,Hoofdstuk3,Paragraaf1,Artikel51,Lid4,,,Bij een verenigde vergadering worden de kamers als n beschouwd.,21-12-2018,jci1.3:c:BWBR0001840&hoofdstuk=3&paragraaf=1&artikel=51&lid=4&z=2018-12-21&g=2018-12-21
110,Hoofdstuk3,Paragraaf1,Artikel52,Lid1,,,De zittingsduur van beide kamers is vier jaren.,21-12-2018,jci1.3:c:BWBR0001840&hoofdstuk=3&paragraaf=1&artikel=52&lid=1&z=2018-12-21&g=2018-12-21
111,Hoofdstuk3,Paragraaf1,Artikel52,Lid2,,,"Indien voor de provinciale staten bij de wet een andere zittingsduur dan vier jaren wordt vastgesteld, wordt daarbij de zittingsduur van de Eerste Kamer in overeenkomstige zin gewijzigd.",21-12-2018,jci1.3:c:BWBR0001840&hoofdstuk=3&paragraaf=1&artikel=52&lid=2&z=2018-12-21&g=2018-12-21
112,Hoofdstuk3,Paragraaf1,Artikel53,Lid1,,,De leden van beide kamers worden gekozen op de grondslag van evenredige vertegenwoordiging binnen door de wet te stellen grenzen.,21-12-2018,jci1.3:c:BWBR0001840&hoofdstuk=3&paragraaf=1&artikel=53&lid=1&z=2018-12-21&g=2018-12-21
113,Hoofdstuk3,Paragraaf1,Artikel53,Lid2,,,De verkiezingen worden gehouden bij geheime stemming.,21-12-2018,jci1.3:c:BWBR0001840&hoofdstuk=3&paragraaf=1&artikel=53&lid=2&z=2018-12-21&g=2018-12-21
114,Hoofdstuk3,Paragraaf1,Artikel54,Lid1,,,"De leden van de Tweede Kamer worden rechtstreeks gekozen door de Nederlanders die de leeftijd van achttien jaar hebben bereikt, behoudens bij de wet te bepalen uitzonderingen ten aanzien van Nederlanders die geen ingezetenen zijn.",21-12-2018,jci1.3:c:BWBR0001840&hoofdstuk=3&paragraaf=1&artikel=54&lid=1&z=2018-12-21&g=2018-12-21
115,Hoofdstuk3,Paragraaf1,Artikel54,Lid2,,,Van het kiesrecht is uitgesloten hij die wegens het begaan van een daartoe bij de wet aangewezen delict bij onherroepelijke rechterlijke uitspraak is veroordeeld tot een vrijheidsstraf van ten minste een jaar en hierbij tevens is ontzet van het kiesrecht.,21-12-2018,jci1.3:c:BWBR0001840&hoofdstuk=3&paragraaf=1&artikel=54&lid=2&z=2018-12-21&g=2018-12-21
116,Hoofdstuk3,Paragraaf1,Artikel55,,,,"De leden van de Eerste Kamer worden gekozen door de leden van provinciale staten en de leden van een kiescollege als bedoeld in . De verkiezing wordt, behoudens in geval van ontbinding der kamer, gehouden binnen drie maanden na de verkiezing van de leden van provinciale staten.artikel 132a, derde lid",21-12-2018,jci1.3:c:BWBR0001840&hoofdstuk=3&paragraaf=1&artikel=55&z=2018-12-21&g=2018-12-21
117,Hoofdstuk3,Paragraaf1,Artikel56,,,,"Om lid van de Staten-Generaal te kunnen zijn is vereist dat men Nederlander is, de leeftijd van achttien jaar heeft bereikt en niet is uitgesloten van het kiesrecht.",21-12-2018,jci1.3:c:BWBR0001840&hoofdstuk=3&paragraaf=1&artikel=56&z=2018-12-21&g=2018-12-21
118,Hoofdstuk3,Paragraaf1,Artikel57,Lid1,,,Niemand kan lid van beide kamers zijn.,21-12-2018,jci1.3:c:BWBR0001840&hoofdstuk=3&paragraaf=1&artikel=57&lid=1&z=2018-12-21&g=2018-12-21
119,Hoofdstuk3,Paragraaf1,Artikel57,Lid2,,,"Een lid van de Staten-Generaal kan niet tevens zijn minister, staatssecretaris, lid van de Raad van State, lid van de Algemene Rekenkamer, Nationale ombudsman of substituut-ombudsman, of lid van of procureur-generaal of advocaat-generaal bij de Hoge Raad.",21-12-2018,jci1.3:c:BWBR0001840&hoofdstuk=3&paragraaf=1&artikel=57&lid=2&z=2018-12-21&g=2018-12-21
120,Hoofdstuk3,Paragraaf1,Artikel57,Lid3,,,"Niettemin kan een minister of staatssecretaris, die zijn ambt ter beschikking heeft gesteld, dit ambt verenigen met het lidmaatschap van de Staten-Generaal, totdat omtrent die beschikbaarstelling is beslist.",21-12-2018,jci1.3:c:BWBR0001840&hoofdstuk=3&paragraaf=1&artikel=57&lid=3&z=2018-12-21&g=2018-12-21
121,Hoofdstuk3,Paragraaf1,Artikel57,Lid4,,,De wet kan ten aanzien van andere openbare betrekkingen bepalen dat zij niet gelijktijdig met het lidmaatschap van de Staten-Generaal of van een der kamers kunnen worden uitgeoefend.,21-12-2018,jci1.3:c:BWBR0001840&hoofdstuk=3&paragraaf=1&artikel=57&lid=4&z=2018-12-21&g=2018-12-21
122,Hoofdstuk3,Paragraaf1,Artikel57a,,,,"De wet regelt de tijdelijke vervanging van een lid van de Staten-Generaal wegens zwangerschap en bevalling, alsmede wegens ziekte.",21-12-2018,jci1.3:c:BWBR0001840&hoofdstuk=3&paragraaf=1&artikel=57a&z=2018-12-21&g=2018-12-21
123,Hoofdstuk3,Paragraaf1,Artikel58,,,,Elke kamer onderzoekt de geloofsbrieven van haar nieuwbenoemde leden en beslist met inachtneming van bij de wet te stellen regels de geschillen welke met betrekking tot de geloofsbrieven of de verkiezing zelf rijzen.,21-12-2018,jci1.3:c:BWBR0001840&hoofdstuk=3&paragraaf=1&artikel=58&z=2018-12-21&g=2018-12-21
124,Hoofdstuk3,Paragraaf1,Artikel59,,,,"Alles, wat verder het kiesrecht en de verkiezingen betreft, wordt bij de wet geregeld.",21-12-2018,jci1.3:c:BWBR0001840&hoofdstuk=3&paragraaf=1&artikel=59&z=2018-12-21&g=2018-12-21
125,Hoofdstuk3,Paragraaf1,Artikel60,,,,"Op de wijze bij de wet voorgeschreven leggen de leden van de kamers bij de aanvaarding van hun ambt in de vergadering een eed, dan wel verklaring en belofte, van zuivering af en zweren of beloven zij trouw aan de Grondwet en een getrouwe vervulling van hun ambt.",21-12-2018,jci1.3:c:BWBR0001840&hoofdstuk=3&paragraaf=1&artikel=60&z=2018-12-21&g=2018-12-21
126,Hoofdstuk3,Paragraaf1,Artikel61,Lid1,,,Elk der kamers benoemt uit de leden een voorzitter.,21-12-2018,jci1.3:c:BWBR0001840&hoofdstuk=3&paragraaf=1&artikel=61&lid=1&z=2018-12-21&g=2018-12-21
127,Hoofdstuk3,Paragraaf1,Artikel61,Lid2,,,Elk der kamers benoemt een griffier. Deze en de overige ambtenaren van de kamers kunnen niet tevens lid van de Staten-Generaal zijn.,21-12-2018,jci1.3:c:BWBR0001840&hoofdstuk=3&paragraaf=1&artikel=61&lid=2&z=2018-12-21&g=2018-12-21
128,Hoofdstuk3,Paragraaf1,Artikel62,,,,De voorzitter van de Eerste Kamer heeft de leiding van de verenigde vergadering.,21-12-2018,jci1.3:c:BWBR0001840&hoofdstuk=3&paragraaf=1&artikel=62&z=2018-12-21&g=2018-12-21
129,Hoofdstuk3,Paragraaf1,Artikel63,,,,Geldelijke voorzieningen ten behoeve van leden en gewezen leden van de Staten-Generaal en van hun nabestaanden worden bij de wet geregeld. De kamers kunnen een voorstel van wet ter zake alleen aannemen met ten minste twee derden van het aantal uitgebrachte stemmen.,21-12-2018,jci1.3:c:BWBR0001840&hoofdstuk=3&paragraaf=1&artikel=63&z=2018-12-21&g=2018-12-21
130,Hoofdstuk3,Paragraaf1,Artikel64,Lid1,,,Elk der kamers kan bij koninklijk besluit worden ontbonden.,21-12-2018,jci1.3:c:BWBR0001840&hoofdstuk=3&paragraaf=1&artikel=64&lid=1&z=2018-12-21&g=2018-12-21
131,Hoofdstuk3,Paragraaf1,Artikel64,Lid2,,,Het besluit tot ontbinding houdt tevens de last in tot een nieuwe verkiezing voor de ontbonden kamer en tot het samenkomen van de nieuw gekozen kamer binnen drie maanden.,21-12-2018,jci1.3:c:BWBR0001840&hoofdstuk=3&paragraaf=1&artikel=64&lid=2&z=2018-12-21&g=2018-12-21
132,Hoofdstuk3,Paragraaf1,Artikel64,Lid3,,,De ontbinding gaat in op de dag waarop de nieuw gekozen kamer samenkomt.,21-12-2018,jci1.3:c:BWBR0001840&hoofdstuk=3&paragraaf=1&artikel=64&lid=3&z=2018-12-21&g=2018-12-21
133,Hoofdstuk3,Paragraaf1,Artikel64,Lid4,,,De wet stelt de zittingsduur van een na ontbinding optredende Tweede Kamer vast; de termijn mag niet langer zijn dan vijf jaren. De zittingsduur van een na ontbinding optredende Eerste Kamer eindigt op het tijdstip waarop de zittingsduur van de ontbonden kamer zou zijn geindigd.,21-12-2018,jci1.3:c:BWBR0001840&hoofdstuk=3&paragraaf=1&artikel=64&lid=4&z=2018-12-21&g=2018-12-21
134,Hoofdstuk3,Paragraaf2,Artikel65,,,,Jaarlijks op de derde dinsdag van september of op een bij de wet te bepalen eerder tijdstip wordt door of namens de Koning in een verenigde vergadering van de Staten-Generaal een uiteenzetting van het door de regering te voeren beleid gegeven.,21-12-2018,jci1.3:c:BWBR0001840&hoofdstuk=3&paragraaf=2&artikel=65&z=2018-12-21&g=2018-12-21
135,Hoofdstuk3,Paragraaf2,Artikel66,Lid1,,,De vergaderingen van de Staten-Generaal zijn openbaar.,21-12-2018,jci1.3:c:BWBR0001840&hoofdstuk=3&paragraaf=2&artikel=66&lid=1&z=2018-12-21&g=2018-12-21
136,Hoofdstuk3,Paragraaf2,Artikel66,Lid2,,,"De deuren worden gesloten, wanneer een tiende deel van het aantal aanwezige leden het vordert of de voorzitter het nodig oordeelt.",21-12-2018,jci1.3:c:BWBR0001840&hoofdstuk=3&paragraaf=2&artikel=66&lid=2&z=2018-12-21&g=2018-12-21
137,Hoofdstuk3,Paragraaf2,Artikel66,Lid3,,,"Door de kamer, onderscheidenlijk de kamers in verenigde vergadering, wordt vervolgens beslist of met gesloten deuren zal worden beraadslaagd en besloten.",21-12-2018,jci1.3:c:BWBR0001840&hoofdstuk=3&paragraaf=2&artikel=66&lid=3&z=2018-12-21&g=2018-12-21
138,Hoofdstuk3,Paragraaf2,Artikel67,Lid1,,,"De kamers mogen elk afzonderlijk en in verenigde vergadering alleen beraadslagen of besluiten, indien meer dan de helft van het aantal zitting hebbende leden ter vergadering aanwezig is.",21-12-2018,jci1.3:c:BWBR0001840&hoofdstuk=3&paragraaf=2&artikel=67&lid=1&z=2018-12-21&g=2018-12-21
139,Hoofdstuk3,Paragraaf2,Artikel67,Lid2,,,Besluiten worden genomen bij meerderheid van stemmen.,21-12-2018,jci1.3:c:BWBR0001840&hoofdstuk=3&paragraaf=2&artikel=67&lid=2&z=2018-12-21&g=2018-12-21
140,Hoofdstuk3,Paragraaf2,Artikel67,Lid3,,,De leden stemmen zonder last.,21-12-2018,jci1.3:c:BWBR0001840&hoofdstuk=3&paragraaf=2&artikel=67&lid=3&z=2018-12-21&g=2018-12-21
141,Hoofdstuk3,Paragraaf2,Artikel67,Lid4,,,"Over zaken wordt mondeling en bij hoofdelijke oproeping gestemd, wanneer n lid dit verlangt.",21-12-2018,jci1.3:c:BWBR0001840&hoofdstuk=3&paragraaf=2&artikel=67&lid=4&z=2018-12-21&g=2018-12-21
142,Hoofdstuk3,Paragraaf2,Artikel68,,,,De ministers en de staatssecretarissen geven de kamers elk afzonderlijk en in verenigde vergadering mondeling of schriftelijk de door een of meer leden verlangde inlichtingen waarvan het verstrekken niet in strijd is met het belang van de staat.,21-12-2018,jci1.3:c:BWBR0001840&hoofdstuk=3&paragraaf=2&artikel=68&z=2018-12-21&g=2018-12-21
143,Hoofdstuk3,Paragraaf2,Artikel69,Lid1,,,De ministers en de staatssecretarissen hebben toegang tot de vergaderingen en kunnen aan de beraadslaging deelnemen.,21-12-2018,jci1.3:c:BWBR0001840&hoofdstuk=3&paragraaf=2&artikel=69&lid=1&z=2018-12-21&g=2018-12-21
144,Hoofdstuk3,Paragraaf2,Artikel69,Lid2,,,Zij kunnen door de kamers elk afzonderlijk en in verenigde vergadering worden uitgenodigd om ter vergadering aanwezig te zijn.,21-12-2018,jci1.3:c:BWBR0001840&hoofdstuk=3&paragraaf=2&artikel=69&lid=2&z=2018-12-21&g=2018-12-21
145,Hoofdstuk3,Paragraaf2,Artikel69,Lid3,,,"Zij kunnen zich in de vergaderingen doen bijstaan door de personen, daartoe door hen aangewezen.",21-12-2018,jci1.3:c:BWBR0001840&hoofdstuk=3&paragraaf=2&artikel=69&lid=3&z=2018-12-21&g=2018-12-21
146,Hoofdstuk3,Paragraaf2,Artikel70,,,,"Beide kamers hebben, zowel ieder afzonderlijk als in verenigde vergadering, het recht van onderzoek (enqute), te regelen bij de wet.",21-12-2018,jci1.3:c:BWBR0001840&hoofdstuk=3&paragraaf=2&artikel=70&z=2018-12-21&g=2018-12-21
147,Hoofdstuk3,Paragraaf2,Artikel71,,,,"De leden van de Staten-Generaal, de ministers, de staatssecretarissen en andere personen die deelnemen aan de beraadslaging, kunnen niet in rechte worden vervolgd of aangesproken voor hetgeen zij in de vergaderingen van de Staten-Generaal of van commissies daaruit hebben gezegd of aan deze schriftelijk hebben overgelegd.",21-12-2018,jci1.3:c:BWBR0001840&hoofdstuk=3&paragraaf=2&artikel=71&z=2018-12-21&g=2018-12-21
148,Hoofdstuk3,Paragraaf2,Artikel72,,,,De kamers stellen elk afzonderlijk en in verenigde vergadering een reglement van orde vast.,21-12-2018,jci1.3:c:BWBR0001840&hoofdstuk=3&paragraaf=2&artikel=72&z=2018-12-21&g=2018-12-21
149,Hoofdstuk4,Artikel73,Lid1,,,,"De Raad van State of een afdeling van de Raad wordt gehoord over voorstellen van wet en ontwerpen van algemene maatregelen van bestuur, alsmede over voorstellen tot goedkeuring van verdragen door de Staten-Generaal. In bij de wet te bepalen gevallen kan het horen achterwege blijven.",21-12-2018,jci1.3:c:BWBR0001840&hoofdstuk=4&artikel=73&lid=1&z=2018-12-21&g=2018-12-21
150,Hoofdstuk4,Artikel73,Lid2,,,,De Raad of een afdeling van de Raad is belast met het onderzoek van de geschillen van bestuur die bij koninklijk besluit worden beslist en draagt de uitspraak voor.,21-12-2018,jci1.3:c:BWBR0001840&hoofdstuk=4&artikel=73&lid=2&z=2018-12-21&g=2018-12-21
151,Hoofdstuk4,Artikel73,Lid3,,,,De wet kan aan de Raad of een afdeling van de Raad de uitspraak in geschillen van bestuur opdragen.,21-12-2018,jci1.3:c:BWBR0001840&hoofdstuk=4&artikel=73&lid=3&z=2018-12-21&g=2018-12-21
152,Hoofdstuk4,Artikel74,Lid1,,,,De Koning is voorzitter van de Raad van State. De vermoedelijke opvolger van de Koning heeft na het bereiken van de leeftijd van achttien jaar van rechtswege zitting in de Raad. Bij of krachtens de wet kan aan andere leden van het koninklijk huis zitting in de Raad worden verleend.,21-12-2018,jci1.3:c:BWBR0001840&hoofdstuk=4&artikel=74&lid=1&z=2018-12-21&g=2018-12-21
153,Hoofdstuk4,Artikel74,Lid2,,,,De leden van de Raad worden bij koninklijk besluit voor het leven benoemd.,21-12-2018,jci1.3:c:BWBR0001840&hoofdstuk=4&artikel=74&lid=2&z=2018-12-21&g=2018-12-21
154,Hoofdstuk4,Artikel74,Lid3,,,,Op eigen verzoek en wegens het bereiken van een bij de wet te bepalen leeftijd worden zij ontslagen.,21-12-2018,jci1.3:c:BWBR0001840&hoofdstuk=4&artikel=74&lid=3&z=2018-12-21&g=2018-12-21
155,Hoofdstuk4,Artikel74,Lid4,,,,In de gevallen bij de wet aangewezen kunnen zij door de Raad worden geschorst of ontslagen.,21-12-2018,jci1.3:c:BWBR0001840&hoofdstuk=4&artikel=74&lid=4&z=2018-12-21&g=2018-12-21
156,Hoofdstuk4,Artikel74,Lid5,,,,De wet regelt overigens hun rechtspositie.,21-12-2018,jci1.3:c:BWBR0001840&hoofdstuk=4&artikel=74&lid=5&z=2018-12-21&g=2018-12-21
157,Hoofdstuk4,Artikel75,Lid1,,,,"De wet regelt de inrichting, samenstelling en bevoegdheid van de Raad van State.",21-12-2018,jci1.3:c:BWBR0001840&hoofdstuk=4&artikel=75&lid=1&z=2018-12-21&g=2018-12-21
158,Hoofdstuk4,Artikel75,Lid2,,,,Bij de wet kunnen aan de Raad of een afdeling van de Raad ook andere taken worden opgedragen.,21-12-2018,jci1.3:c:BWBR0001840&hoofdstuk=4&artikel=75&lid=2&z=2018-12-21&g=2018-12-21
159,Hoofdstuk4,Artikel76,,,,,De Algemene Rekenkamer is belast met het onderzoek van de ontvangsten en uitgaven van het Rijk.,21-12-2018,jci1.3:c:BWBR0001840&hoofdstuk=4&artikel=76&z=2018-12-21&g=2018-12-21
160,Hoofdstuk4,Artikel77,Lid1,,,,"De leden van de Algemene Rekenkamer worden bij koninklijk besluit voor het leven benoemd uit een voordracht van drie personen, opgemaakt door de Tweede Kamer der Staten-Generaal.",21-12-2018,jci1.3:c:BWBR0001840&hoofdstuk=4&artikel=77&lid=1&z=2018-12-21&g=2018-12-21
161,Hoofdstuk4,Artikel77,Lid2,,,,Op eigen verzoek en wegens het bereiken van een bij de wet te bepalen leeftijd worden zij ontslagen.,21-12-2018,jci1.3:c:BWBR0001840&hoofdstuk=4&artikel=77&lid=2&z=2018-12-21&g=2018-12-21
162,Hoofdstuk4,Artikel77,Lid3,,,,In de gevallen bij de wet aangewezen kunnen zij door de Hoge Raad worden geschorst of ontslagen.,21-12-2018,jci1.3:c:BWBR0001840&hoofdstuk=4&artikel=77&lid=3&z=2018-12-21&g=2018-12-21
163,Hoofdstuk4,Artikel77,Lid4,,,,De wet regelt overigens hun rechtspositie.,21-12-2018,jci1.3:c:BWBR0001840&hoofdstuk=4&artikel=77&lid=4&z=2018-12-21&g=2018-12-21
164,Hoofdstuk4,Artikel78,Lid1,,,,"De wet regelt de inrichting, samenstelling en bevoegdheid van de Algemene Rekenkamer.",21-12-2018,jci1.3:c:BWBR0001840&hoofdstuk=4&artikel=78&lid=1&z=2018-12-21&g=2018-12-21
165,Hoofdstuk4,Artikel78,Lid2,,,,Bij de wet kunnen aan de Algemene Rekenkamer ook andere taken worden opgedragen.,21-12-2018,jci1.3:c:BWBR0001840&hoofdstuk=4&artikel=78&lid=2&z=2018-12-21&g=2018-12-21
166,Hoofdstuk4,Artikel78a,Lid1,,,,De Nationale ombudsman verricht op verzoek of uit eigen beweging onderzoek naar gedragingen van bestuursorganen van het Rijk en van andere bij of krachtens de wet aangewezen bestuursorganen.,21-12-2018,jci1.3:c:BWBR0001840&hoofdstuk=4&artikel=78a&lid=1&z=2018-12-21&g=2018-12-21
167,Hoofdstuk4,Artikel78a,Lid2,,,,De Nationale ombudsman en een substituut-ombudsman worden voor een bij de wet te bepalen termijn benoemd door de Tweede Kamer der Staten-Generaal. Op eigen verzoek en wegens het bereiken van een bij de wet te bepalen leeftijd worden zij ontslagen. In de gevallen bij de wet aangewezen kunnen zij door de Tweede Kamer der Staten-Generaal worden geschorst of ontslagen. De wet regelt overigens hun rechtspositie.,21-12-2018,jci1.3:c:BWBR0001840&hoofdstuk=4&artikel=78a&lid=2&z=2018-12-21&g=2018-12-21
168,Hoofdstuk4,Artikel78a,Lid3,,,,De wet regelt de bevoegdheid en werkwijze van de Nationale ombudsman.,21-12-2018,jci1.3:c:BWBR0001840&hoofdstuk=4&artikel=78a&lid=3&z=2018-12-21&g=2018-12-21
169,Hoofdstuk4,Artikel78a,Lid4,,,,Bij of krachtens de wet kunnen aan de Nationale ombudsman ook andere taken worden opgedragen.,21-12-2018,jci1.3:c:BWBR0001840&hoofdstuk=4&artikel=78a&lid=4&z=2018-12-21&g=2018-12-21
170,Hoofdstuk4,Artikel79,Lid1,,,,Vaste colleges van advies in zaken van wetgeving en bestuur van het Rijk worden ingesteld bij of krachtens de wet.,21-12-2018,jci1.3:c:BWBR0001840&hoofdstuk=4&artikel=79&lid=1&z=2018-12-21&g=2018-12-21
171,Hoofdstuk4,Artikel79,Lid2,,,,"De wet regelt de inrichting, samenstelling en bevoegdheid van deze colleges.",21-12-2018,jci1.3:c:BWBR0001840&hoofdstuk=4&artikel=79&lid=2&z=2018-12-21&g=2018-12-21
172,Hoofdstuk4,Artikel79,Lid3,,,,Bij of krachtens de wet kunnen aan deze colleges ook andere dan adviserende taken worden opgedragen.,21-12-2018,jci1.3:c:BWBR0001840&hoofdstuk=4&artikel=79&lid=3&z=2018-12-21&g=2018-12-21
173,Hoofdstuk4,Artikel80,Lid1,,,,De adviezen van de in dit hoofdstuk bedoelde colleges worden openbaar gemaakt volgens regels bij de wet te stellen.,21-12-2018,jci1.3:c:BWBR0001840&hoofdstuk=4&artikel=80&lid=1&z=2018-12-21&g=2018-12-21
174,Hoofdstuk4,Artikel80,Lid2,,,,"Adviezen, uitgebracht ter zake van voorstellen van wet die door of vanwege de Koning worden ingediend, worden, behoudens bij de wet te bepalen uitzonderingen, aan de Staten-Generaal overgelegd.",21-12-2018,jci1.3:c:BWBR0001840&hoofdstuk=4&artikel=80&lid=2&z=2018-12-21&g=2018-12-21
175,Hoofdstuk5,Paragraaf1,Artikel81,,,,De vaststelling van wetten geschiedt door de regering en de Staten-Generaal gezamenlijk.,21-12-2018,jci1.3:c:BWBR0001840&hoofdstuk=5&paragraaf=1&artikel=81&z=2018-12-21&g=2018-12-21
176,Hoofdstuk5,Paragraaf1,Artikel82,Lid1,,,Voorstellen van wet kunnen worden ingediend door of vanwege de Koning en door de Tweede Kamer der Staten-Generaal.,21-12-2018,jci1.3:c:BWBR0001840&hoofdstuk=5&paragraaf=1&artikel=82&lid=1&z=2018-12-21&g=2018-12-21
177,Hoofdstuk5,Paragraaf1,Artikel82,Lid2,,,"Voorstellen van wet waarvoor behandeling door de Staten-Generaal in verenigde vergadering is voorgeschreven, kunnen worden ingediend door of vanwege de Koning en, voor zover de betreffende artikelen van  dit toelaten, door de verenigde vergadering.hoofdstuk 2",21-12-2018,jci1.3:c:BWBR0001840&hoofdstuk=5&paragraaf=1&artikel=82&lid=2&z=2018-12-21&g=2018-12-21
178,Hoofdstuk5,Paragraaf1,Artikel82,Lid3,,,"Voorstellen van wet, in te dienen door de Tweede Kamer onderscheidenlijk de verenigde vergadering, worden bij haar door een of meer leden aanhangig gemaakt.",21-12-2018,jci1.3:c:BWBR0001840&hoofdstuk=5&paragraaf=1&artikel=82&lid=3&z=2018-12-21&g=2018-12-21
179,Hoofdstuk5,Paragraaf1,Artikel83,,,,"Voorstellen van wet, ingediend door of vanwege de Koning, worden gezonden aan de Tweede Kamer of, indien daarvoor behandeling door de Staten-Generaal in verenigde vergadering is voorgeschreven, aan deze vergadering.",21-12-2018,jci1.3:c:BWBR0001840&hoofdstuk=5&paragraaf=1&artikel=83&z=2018-12-21&g=2018-12-21
180,Hoofdstuk5,Paragraaf1,Artikel84,Lid1,,,"Zolang een voorstel van wet, ingediend door of vanwege de Koning, niet door de Tweede Kamer onderscheidenlijk de verenigde vergadering is aangenomen, kan het door haar, op voorstel van een of meer leden, en vanwege de regering worden gewijzigd.",21-12-2018,jci1.3:c:BWBR0001840&hoofdstuk=5&paragraaf=1&artikel=84&lid=1&z=2018-12-21&g=2018-12-21
181,Hoofdstuk5,Paragraaf1,Artikel84,Lid2,,,"Zolang de Tweede Kamer onderscheidenlijk de verenigde vergadering een door haar in te dienen voorstel van wet niet heeft aangenomen, kan het door haar, op voorstel van een of meer leden, en door het lid of de leden door wie het aanhangig is gemaakt, worden gewijzigd.",21-12-2018,jci1.3:c:BWBR0001840&hoofdstuk=5&paragraaf=1&artikel=84&lid=2&z=2018-12-21&g=2018-12-21
182,Hoofdstuk5,Paragraaf1,Artikel85,,,,"Zodra de Tweede Kamer een voorstel van wet heeft aangenomen of tot indiening van een voorstel heeft besloten, zendt zij het aan de Eerste Kamer, die het voorstel overweegt zoals het door de Tweede Kamer aan haar is gezonden. De Tweede Kamer kan een of meer van haar leden opdragen een door haar ingediend voorstel in de Eerste Kamer te verdedigen.",21-12-2018,jci1.3:c:BWBR0001840&hoofdstuk=5&paragraaf=1&artikel=85&z=2018-12-21&g=2018-12-21
183,Hoofdstuk5,Paragraaf1,Artikel86,Lid1,,,"Zolang een voorstel van wet niet door de Staten-Generaal is aangenomen, kan het door of vanwege de indiener worden ingetrokken.",21-12-2018,jci1.3:c:BWBR0001840&hoofdstuk=5&paragraaf=1&artikel=86&lid=1&z=2018-12-21&g=2018-12-21
184,Hoofdstuk5,Paragraaf1,Artikel86,Lid2,,,"Zolang de Tweede Kamer onderscheidenlijk de verenigde vergadering een door haar in te dienen voorstel van wet niet heeft aangenomen, kan het door het lid of de leden door wie het aanhangig is gemaakt, worden ingetrokken.",21-12-2018,jci1.3:c:BWBR0001840&hoofdstuk=5&paragraaf=1&artikel=86&lid=2&z=2018-12-21&g=2018-12-21
185,Hoofdstuk5,Paragraaf1,Artikel87,Lid1,,,"Een voorstel wordt wet, zodra het door de Staten-Generaal is aangenomen en door de Koning is bekrachtigd.",21-12-2018,jci1.3:c:BWBR0001840&hoofdstuk=5&paragraaf=1&artikel=87&lid=1&z=2018-12-21&g=2018-12-21
186,Hoofdstuk5,Paragraaf1,Artikel87,Lid2,,,De Koning en de Staten-Generaal geven elkaar kennis van hun besluit omtrent enig voorstel van wet.,21-12-2018,jci1.3:c:BWBR0001840&hoofdstuk=5&paragraaf=1&artikel=87&lid=2&z=2018-12-21&g=2018-12-21
187,Hoofdstuk5,Paragraaf1,Artikel88,,,,De wet regelt de bekendmaking en de inwerkingtreding van de wetten. Zij treden niet in werking voordat zij zijn bekendgemaakt.,21-12-2018,jci1.3:c:BWBR0001840&hoofdstuk=5&paragraaf=1&artikel=88&z=2018-12-21&g=2018-12-21
188,Hoofdstuk5,Paragraaf1,Artikel89,Lid1,,,Algemene maatregelen van bestuur worden bij koninklijk besluit vastgesteld.,21-12-2018,jci1.3:c:BWBR0001840&hoofdstuk=5&paragraaf=1&artikel=89&lid=1&z=2018-12-21&g=2018-12-21
189,Hoofdstuk5,Paragraaf1,Artikel89,Lid2,,,"Voorschriften, door straffen te handhaven, worden daarin alleen gegeven krachtens de wet. De wet bepaalt de op te leggen straffen.",21-12-2018,jci1.3:c:BWBR0001840&hoofdstuk=5&paragraaf=1&artikel=89&lid=2&z=2018-12-21&g=2018-12-21
190,Hoofdstuk5,Paragraaf1,Artikel89,Lid3,,,De wet regelt de bekendmaking en de inwerkingtreding van de algemene maatregelen van bestuur. Zij treden niet in werking voordat zij zijn bekendgemaakt.,21-12-2018,jci1.3:c:BWBR0001840&hoofdstuk=5&paragraaf=1&artikel=89&lid=3&z=2018-12-21&g=2018-12-21
191,Hoofdstuk5,Paragraaf1,Artikel89,Lid4,,,Het tweede en derde lid zijn van overeenkomstige toepassing op andere vanwege het Rijk vastgestelde algemeen verbindende voorschriften.,21-12-2018,jci1.3:c:BWBR0001840&hoofdstuk=5&paragraaf=1&artikel=89&lid=4&z=2018-12-21&g=2018-12-21
192,Hoofdstuk5,Paragraaf2,Artikel90,,,,De regering bevordert de ontwikkeling van de internationale rechtsorde.,21-12-2018,jci1.3:c:BWBR0001840&hoofdstuk=5&paragraaf=2&artikel=90&z=2018-12-21&g=2018-12-21
193,Hoofdstuk5,Paragraaf2,Artikel91,Lid1,,,Het Koninkrijk wordt niet aan verdragen gebonden en deze worden niet opgezegd zonder voorafgaande goedkeuring van de Staten-Generaal. De wet bepaalt de gevallen waarin geen goedkeuring is vereist.,21-12-2018,jci1.3:c:BWBR0001840&hoofdstuk=5&paragraaf=2&artikel=91&lid=1&z=2018-12-21&g=2018-12-21
194,Hoofdstuk5,Paragraaf2,Artikel91,Lid2,,,De wet bepaalt de wijze waarop de goedkeuring wordt verleend en kan voorzien in stilzwijgende goedkeuring.,21-12-2018,jci1.3:c:BWBR0001840&hoofdstuk=5&paragraaf=2&artikel=91&lid=2&z=2018-12-21&g=2018-12-21
195,Hoofdstuk5,Paragraaf2,Artikel91,Lid3,,,"Indien een verdrag bepalingen bevat welke afwijken van de Grondwet dan wel tot zodanig afwijken noodzaken, kunnen de kamers de goedkeuring alleen verlenen met ten minste twee derden van het aantal uitgebrachte stemmen.",21-12-2018,jci1.3:c:BWBR0001840&hoofdstuk=5&paragraaf=2&artikel=91&lid=3&z=2018-12-21&g=2018-12-21
196,Hoofdstuk5,Paragraaf2,Artikel92,,,,"Met inachtneming, zo nodig, van het bepaalde in , kunnen bij of krachtens verdrag aan volkenrechtelijke organisaties bevoegdheden tot wetgeving, bestuur en rechtspraak worden opgedragen.artikel 91, derde lid",21-12-2018,jci1.3:c:BWBR0001840&hoofdstuk=5&paragraaf=2&artikel=92&z=2018-12-21&g=2018-12-21
197,Hoofdstuk5,Paragraaf2,Artikel93,,,,"Bepalingen van verdragen en van besluiten van volkenrechtelijke organisaties, die naar haar inhoud een ieder kunnen verbinden, hebben verbindende kracht nadat zij zijn bekendgemaakt.",21-12-2018,jci1.3:c:BWBR0001840&hoofdstuk=5&paragraaf=2&artikel=93&z=2018-12-21&g=2018-12-21
198,Hoofdstuk5,Paragraaf2,Artikel94,,,,"Binnen het Koninkrijk geldende wettelijke voorschriften vinden geen toepassing, indien deze toepassing niet verenigbaar is met een ieder verbindende bepalingen van verdragen en van besluiten van volkenrechtelijke organisaties.",21-12-2018,jci1.3:c:BWBR0001840&hoofdstuk=5&paragraaf=2&artikel=94&z=2018-12-21&g=2018-12-21
199,Hoofdstuk5,Paragraaf2,Artikel95,,,,De wet geeft regels omtrent de bekendmaking van verdragen en besluiten van volkenrechtelijke organisaties.,21-12-2018,jci1.3:c:BWBR0001840&hoofdstuk=5&paragraaf=2&artikel=95&z=2018-12-21&g=2018-12-21
200,Hoofdstuk5,Paragraaf2,Artikel96,Lid1,,,Het Koninkrijk wordt niet in oorlog verklaard dan na voorafgaande toestemming van de Staten-Generaal.,21-12-2018,jci1.3:c:BWBR0001840&hoofdstuk=5&paragraaf=2&artikel=96&lid=1&z=2018-12-21&g=2018-12-21
201,Hoofdstuk5,Paragraaf2,Artikel96,Lid2,,,"De toestemming is niet vereist, wanneer het overleg met de Staten-Generaal ten gevolge van een feitelijk bestaande oorlogstoestand niet mogelijk is gebleken.",21-12-2018,jci1.3:c:BWBR0001840&hoofdstuk=5&paragraaf=2&artikel=96&lid=2&z=2018-12-21&g=2018-12-21
202,Hoofdstuk5,Paragraaf2,Artikel96,Lid3,,,De Staten-Generaal beraadslagen en besluiten ter zake in verenigde vergadering.,21-12-2018,jci1.3:c:BWBR0001840&hoofdstuk=5&paragraaf=2&artikel=96&lid=3&z=2018-12-21&g=2018-12-21
203,Hoofdstuk5,Paragraaf2,Artikel96,Lid4,,,Het bepaalde in het eerste en het derde lid is van overeenkomstige toepassing voor een verklaring dat een oorlog beindigd is.,21-12-2018,jci1.3:c:BWBR0001840&hoofdstuk=5&paragraaf=2&artikel=96&lid=4&z=2018-12-21&g=2018-12-21
204,Hoofdstuk5,Paragraaf2,Artikel97,Lid1,,,"Ten behoeve van de verdediging en ter bescherming van de belangen van het Koninkrijk, alsmede ten behoeve van de handhaving en de bevordering van de internationale rechtsorde, is er een krijgsmacht.",21-12-2018,jci1.3:c:BWBR0001840&hoofdstuk=5&paragraaf=2&artikel=97&lid=1&z=2018-12-21&g=2018-12-21
205,Hoofdstuk5,Paragraaf2,Artikel97,Lid2,,,De regering heeft het oppergezag over de krijgsmacht.,21-12-2018,jci1.3:c:BWBR0001840&hoofdstuk=5&paragraaf=2&artikel=97&lid=2&z=2018-12-21&g=2018-12-21
206,Hoofdstuk5,Paragraaf2,Artikel98,Lid1,,,De krijgsmacht bestaat uit vrijwillig dienenden en kan mede bestaan uit dienstplichtigen.,21-12-2018,jci1.3:c:BWBR0001840&hoofdstuk=5&paragraaf=2&artikel=98&lid=1&z=2018-12-21&g=2018-12-21
207,Hoofdstuk5,Paragraaf2,Artikel98,Lid2,,,De wet regelt de verplichte militaire dienst en de bevoegdheid tot opschorting van de oproeping in werkelijke dienst.,21-12-2018,jci1.3:c:BWBR0001840&hoofdstuk=5&paragraaf=2&artikel=98&lid=2&z=2018-12-21&g=2018-12-21
208,Hoofdstuk5,Paragraaf2,Artikel99,,,,De wet regelt vrijstelling van militaire dienst wegens ernstige gewetensbezwaren.,21-12-2018,jci1.3:c:BWBR0001840&hoofdstuk=5&paragraaf=2&artikel=99&z=2018-12-21&g=2018-12-21
209,Hoofdstuk5,Paragraaf2,Artikel99a,,,,Volgens bij de wet te stellen regels kunnen plichten worden opgelegd ten behoeve van de civiele verdediging.,21-12-2018,jci1.3:c:BWBR0001840&hoofdstuk=5&paragraaf=2&artikel=99a&z=2018-12-21&g=2018-12-21
210,Hoofdstuk5,Paragraaf2,Artikel100,Lid1,,,De regering verstrekt de Staten-Generaal vooraf inlichtingen over de inzet of het ter beschikking stellen van de krijgsmacht ter handhaving of bevordering van de internationale rechtsorde. Daaronder is begrepen het vooraf verstrekken van inlichtingen over de inzet of het ter beschikking stellen van de krijgsmacht voor humanitaire hulpverlening in geval van gewapend conflict.,21-12-2018,jci1.3:c:BWBR0001840&hoofdstuk=5&paragraaf=2&artikel=100&lid=1&z=2018-12-21&g=2018-12-21
211,Hoofdstuk5,Paragraaf2,Artikel100,Lid2,,,"Het eerste lid geldt niet, indien dwingende redenen het vooraf verstrekken van inlichtingen verhinderen. In dat geval worden inlichtingen zo spoedig mogelijk verstrekt.",21-12-2018,jci1.3:c:BWBR0001840&hoofdstuk=5&paragraaf=2&artikel=100&lid=2&z=2018-12-21&g=2018-12-21
212,Hoofdstuk5,Paragraaf2,Artikel101,,,,Vervallen,01-11-1995,jci1.3:c:BWBR0001840&hoofdstuk=5&paragraaf=2&artikel=101&z=2018-12-21&g=2018-12-21
213,Hoofdstuk5,Paragraaf2,Artikel102,,,,Vervallen,18-07-2000,jci1.3:c:BWBR0001840&hoofdstuk=5&paragraaf=2&artikel=102&z=2018-12-21&g=2018-12-21
214,Hoofdstuk5,Paragraaf2,Artikel103,Lid1,,,De wet bepaalt in welke gevallen ter handhaving van de uit- of inwendige veiligheid bij koninklijk besluit een door de wet als zodanig aan te wijzen uitzonderingstoestand kan worden afgekondigd; zij regelt de gevolgen.,21-12-2018,jci1.3:c:BWBR0001840&hoofdstuk=5&paragraaf=2&artikel=103&lid=1&z=2018-12-21&g=2018-12-21
215,Hoofdstuk5,Paragraaf2,Artikel103,Lid2,,,"Daarbij kan worden afgeweken van de grondwetsbepalingen inzake de bevoegdheden van de besturen van provincies, gemeenten, openbare lichamen als bedoeld in  en waterschappen, van de grondrechten geregeld in de , voor zover dit de uitoefening buiten gebouwen en besloten plaatsen van het in dit artikel omschreven recht betreft, , , , , en , alsmede van .artikel 132a",21-12-2018,jci1.3:c:BWBR0001840&hoofdstuk=5&paragraaf=2&artikel=103&lid=2&z=2018-12-21&g=2018-12-21
216,Hoofdstuk5,Paragraaf2,Artikel103,Lid3,,,"Terstond na de afkondiging van een uitzonderingstoestand en voorts, zolang deze niet bij koninklijk besluit is opgeheven, telkens wanneer zij zulks nodig oordelen beslissen de Staten-Generaal omtrent het voortduren daarvan; zij beraadslagen en besluiten ter zake in verenigde vergadering.",21-12-2018,jci1.3:c:BWBR0001840&hoofdstuk=5&paragraaf=2&artikel=103&lid=3&z=2018-12-21&g=2018-12-21
217,Hoofdstuk5,Paragraaf2,Artikel104,,,,Belastingen van het Rijk worden geheven uit kracht van een wet. Andere heffingen van het Rijk worden bij de wet geregeld.,21-12-2018,jci1.3:c:BWBR0001840&hoofdstuk=5&paragraaf=2&artikel=104&z=2018-12-21&g=2018-12-21
218,Hoofdstuk5,Paragraaf2,Artikel105,Lid1,,,De begroting van de ontvangsten en de uitgaven van het Rijk wordt bij de wet vastgesteld.,21-12-2018,jci1.3:c:BWBR0001840&hoofdstuk=5&paragraaf=2&artikel=105&lid=1&z=2018-12-21&g=2018-12-21
219,Hoofdstuk5,Paragraaf2,Artikel105,Lid2,,,Jaarlijks worden voorstellen van algemene begrotingswetten door of vanwege de Koning ingediend op het in  bedoelde tijdstip.artikel 65,21-12-2018,jci1.3:c:BWBR0001840&hoofdstuk=5&paragraaf=2&artikel=105&lid=2&z=2018-12-21&g=2018-12-21
220,Hoofdstuk5,Paragraaf2,Artikel105,Lid3,,,De verantwoording van de ontvangsten en de uitgaven van het Rijk wordt aan de Staten-Generaal gedaan overeenkomstig de bepalingen van de wet. De door de Algemene Rekenkamer goedgekeurde rekening wordt aan de Staten-Generaal overgelegd.,21-12-2018,jci1.3:c:BWBR0001840&hoofdstuk=5&paragraaf=2&artikel=105&lid=3&z=2018-12-21&g=2018-12-21
221,Hoofdstuk5,Paragraaf2,Artikel105,Lid4,,,De wet stelt regels omtrent het beheer van de financin van het Rijk.,21-12-2018,jci1.3:c:BWBR0001840&hoofdstuk=5&paragraaf=2&artikel=105&lid=4&z=2018-12-21&g=2018-12-21
222,Hoofdstuk5,Paragraaf2,Artikel106,,,,De wet regelt het geldstelsel.,21-12-2018,jci1.3:c:BWBR0001840&hoofdstuk=5&paragraaf=2&artikel=106&z=2018-12-21&g=2018-12-21
223,Hoofdstuk5,Paragraaf2,Artikel107,Lid1,,,"De wet regelt het burgerlijk recht, het strafrecht en het burgerlijk en strafprocesrecht in algemene wetboeken, behoudens de bevoegdheid tot regeling van bepaalde onderwerpen in afzonderlijke wetten.",21-12-2018,jci1.3:c:BWBR0001840&hoofdstuk=5&paragraaf=2&artikel=107&lid=1&z=2018-12-21&g=2018-12-21
224,Hoofdstuk5,Paragraaf2,Artikel107,Lid2,,,De wet stelt algemene regels van bestuursrecht vast.,21-12-2018,jci1.3:c:BWBR0001840&hoofdstuk=5&paragraaf=2&artikel=107&lid=2&z=2018-12-21&g=2018-12-21
225,Hoofdstuk5,Paragraaf2,Artikel108,,,,Vervallen,25-03-1999,jci1.3:c:BWBR0001840&hoofdstuk=5&paragraaf=2&artikel=108&z=2018-12-21&g=2018-12-21
226,Hoofdstuk5,Paragraaf2,Artikel109,,,,De wet regelt de rechtspositie van de ambtenaren. Zij stelt tevens regels omtrent hun bescherming bij de arbeid en omtrent medezeggenschap.,21-12-2018,jci1.3:c:BWBR0001840&hoofdstuk=5&paragraaf=2&artikel=109&z=2018-12-21&g=2018-12-21
227,Hoofdstuk5,Paragraaf2,Artikel110,,,,De overheid betracht bij de uitvoering van haar taak openbaarheid volgens regels bij de wet te stellen.,21-12-2018,jci1.3:c:BWBR0001840&hoofdstuk=5&paragraaf=2&artikel=110&z=2018-12-21&g=2018-12-21
228,Hoofdstuk5,Paragraaf2,Artikel111,,,,Ridderorden worden bij de wet ingesteld.,21-12-2018,jci1.3:c:BWBR0001840&hoofdstuk=5&paragraaf=2&artikel=111&z=2018-12-21&g=2018-12-21
229,Hoofdstuk6,Artikel112,Lid1,,,,Aan de rechterlijke macht is opgedragen de berechting van geschillen over burgerlijke rechten en over schuldvorderingen.,21-12-2018,jci1.3:c:BWBR0001840&hoofdstuk=6&artikel=112&lid=1&z=2018-12-21&g=2018-12-21
230,Hoofdstuk6,Artikel112,Lid2,,,,"De wet kan de berechting van geschillen die niet uit burgerlijke rechtsbetrekkingen zijn ontstaan, opdragen hetzij aan de rechterlijke macht, hetzij aan gerechten die niet tot de rechterlijke macht behoren. De wet regelt de wijze van behandeling en de gevolgen van de beslissingen.",21-12-2018,jci1.3:c:BWBR0001840&hoofdstuk=6&artikel=112&lid=2&z=2018-12-21&g=2018-12-21
231,Hoofdstuk6,Artikel113,Lid1,,,,Aan de rechterlijke macht is voorts opgedragen de berechting van strafbare feiten.,21-12-2018,jci1.3:c:BWBR0001840&hoofdstuk=6&artikel=113&lid=1&z=2018-12-21&g=2018-12-21
232,Hoofdstuk6,Artikel113,Lid2,,,,Tuchtrechtspraak door de overheid ingesteld wordt bij de wet geregeld.,21-12-2018,jci1.3:c:BWBR0001840&hoofdstuk=6&artikel=113&lid=2&z=2018-12-21&g=2018-12-21
233,Hoofdstuk6,Artikel113,Lid3,,,,Een straf van vrijheidsontneming kan uitsluitend door de rechterlijke macht worden opgelegd.,21-12-2018,jci1.3:c:BWBR0001840&hoofdstuk=6&artikel=113&lid=3&z=2018-12-21&g=2018-12-21
234,Hoofdstuk6,Artikel113,Lid4,,,,Voor berechting buiten Nederland en voor het oorlogsstrafrecht kan de wet afwijkende regels stellen.,21-12-2018,jci1.3:c:BWBR0001840&hoofdstuk=6&artikel=113&lid=4&z=2018-12-21&g=2018-12-21
235,Hoofdstuk6,Artikel114,,,,,De doodstraf kan niet worden opgelegd.,21-12-2018,jci1.3:c:BWBR0001840&hoofdstuk=6&artikel=114&z=2018-12-21&g=2018-12-21
236,Hoofdstuk6,Artikel115,,,,,"Ten aanzien van de in , bedoelde geschillen kan administratief beroep worden opengesteld.artikel 112, tweede lid",21-12-2018,jci1.3:c:BWBR0001840&hoofdstuk=6&artikel=115&z=2018-12-21&g=2018-12-21
237,Hoofdstuk6,Artikel116,Lid1,,,,De wet wijst de gerechten aan die behoren tot de rechterlijke macht.,21-12-2018,jci1.3:c:BWBR0001840&hoofdstuk=6&artikel=116&lid=1&z=2018-12-21&g=2018-12-21
238,Hoofdstuk6,Artikel116,Lid2,,,,"De wet regelt de inrichting, samenstelling en bevoegdheid van de rechterlijke macht.",21-12-2018,jci1.3:c:BWBR0001840&hoofdstuk=6&artikel=116&lid=2&z=2018-12-21&g=2018-12-21
239,Hoofdstuk6,Artikel116,Lid3,,,,"De wet kan bepalen, dat aan rechtspraak door de rechterlijke macht mede wordt deelgenomen door personen die niet daartoe behoren.",21-12-2018,jci1.3:c:BWBR0001840&hoofdstuk=6&artikel=116&lid=3&z=2018-12-21&g=2018-12-21
240,Hoofdstuk6,Artikel116,Lid4,,,,De wet regelt het toezicht door leden van de rechterlijke macht met rechtspraak belast uit te oefenen op de ambtsvervulling door zodanige leden en door de personen bedoeld in het vorige lid.,21-12-2018,jci1.3:c:BWBR0001840&hoofdstuk=6&artikel=116&lid=4&z=2018-12-21&g=2018-12-21
241,Hoofdstuk6,Artikel117,Lid1,,,,De leden van de rechterlijke macht met rechtspraak belast en de procureur-generaal bij de Hoge Raad worden bij koninklijk besluit voor het leven benoemd.,21-12-2018,jci1.3:c:BWBR0001840&hoofdstuk=6&artikel=117&lid=1&z=2018-12-21&g=2018-12-21
242,Hoofdstuk6,Artikel117,Lid2,,,,Op eigen verzoek en wegens het bereiken van een bij de wet te bepalen leeftijd worden zij ontslagen.,21-12-2018,jci1.3:c:BWBR0001840&hoofdstuk=6&artikel=117&lid=2&z=2018-12-21&g=2018-12-21
243,Hoofdstuk6,Artikel117,Lid3,,,,"In de gevallen bij de wet bepaald kunnen zij door een bij de wet aangewezen, tot de rechterlijke macht behorend gerecht worden geschorst of ontslagen.",21-12-2018,jci1.3:c:BWBR0001840&hoofdstuk=6&artikel=117&lid=3&z=2018-12-21&g=2018-12-21
244,Hoofdstuk6,Artikel117,Lid4,,,,De wet regelt overigens hun rechtspositie.,21-12-2018,jci1.3:c:BWBR0001840&hoofdstuk=6&artikel=117&lid=4&z=2018-12-21&g=2018-12-21
245,Hoofdstuk6,Artikel118,Lid1,,,,"De leden van de Hoge Raad der Nederlanden worden benoemd uit een voordracht van drie personen, opgemaakt door de Tweede Kamer der Staten-Generaal.",21-12-2018,jci1.3:c:BWBR0001840&hoofdstuk=6&artikel=118&lid=1&z=2018-12-21&g=2018-12-21
246,Hoofdstuk6,Artikel118,Lid2,,,,"De Hoge Raad is in de gevallen en binnen de grenzen bij de wet bepaald, belast met de cassatie van rechterlijke uitspraken wegens schending van het recht.",21-12-2018,jci1.3:c:BWBR0001840&hoofdstuk=6&artikel=118&lid=2&z=2018-12-21&g=2018-12-21
247,Hoofdstuk6,Artikel118,Lid3,,,,Bij de wet kunnen aan de Hoge Raad ook andere taken worden opgedragen.,21-12-2018,jci1.3:c:BWBR0001840&hoofdstuk=6&artikel=118&lid=3&z=2018-12-21&g=2018-12-21
248,Hoofdstuk6,Artikel119,,,,,"De leden van de Staten-Generaal, de ministers en de staatssecretarissen staan wegens ambtsmisdrijven in die betrekkingen gepleegd, ook na hun aftreden terecht voor de Hoge Raad. De opdracht tot vervolging wordt gegeven bij koninklijk besluit of bij een besluit van de Tweede Kamer.",21-12-2018,jci1.3:c:BWBR0001840&hoofdstuk=6&artikel=119&z=2018-12-21&g=2018-12-21
249,Hoofdstuk6,Artikel120,,,,,De rechter treedt niet in de beoordeling van de grondwettigheid van wetten en verdragen.,21-12-2018,jci1.3:c:BWBR0001840&hoofdstuk=6&artikel=120&z=2018-12-21&g=2018-12-21
250,Hoofdstuk6,Artikel121,,,,,Met uitzondering van de gevallen bij de wet bepaald vinden de terechtzittingen in het openbaar plaats en houden de vonnissen de gronden in waarop zij rusten. De uitspraak geschiedt in het openbaar.,21-12-2018,jci1.3:c:BWBR0001840&hoofdstuk=6&artikel=121&z=2018-12-21&g=2018-12-21
251,Hoofdstuk6,Artikel122,Lid1,,,,Gratie wordt verleend bij koninklijk besluit na advies van een bij de wet aangewezen gerecht en met inachtneming van bij of krachtens de wet te stellen voorschriften.,21-12-2018,jci1.3:c:BWBR0001840&hoofdstuk=6&artikel=122&lid=1&z=2018-12-21&g=2018-12-21
252,Hoofdstuk6,Artikel122,Lid2,,,,Amnestie wordt bij of krachtens de wet verleend.,21-12-2018,jci1.3:c:BWBR0001840&hoofdstuk=6&artikel=122&lid=2&z=2018-12-21&g=2018-12-21
253,Hoofdstuk7,Artikel123,Lid1,,,,Bij de wet kunnen provincies en gemeenten worden opgeheven en nieuwe ingesteld.,21-12-2018,jci1.3:c:BWBR0001840&hoofdstuk=7&artikel=123&lid=1&z=2018-12-21&g=2018-12-21
254,Hoofdstuk7,Artikel123,Lid2,,,,De wet regelt de wijziging van provinciale en gemeentelijke grenzen.,21-12-2018,jci1.3:c:BWBR0001840&hoofdstuk=7&artikel=123&lid=2&z=2018-12-21&g=2018-12-21
255,Hoofdstuk7,Artikel124,Lid1,,,,Voor provincies en gemeenten wordt de bevoegdheid tot regeling en bestuur inzake hun huishouding aan hun besturen overgelaten.,21-12-2018,jci1.3:c:BWBR0001840&hoofdstuk=7&artikel=124&lid=1&z=2018-12-21&g=2018-12-21
256,Hoofdstuk7,Artikel124,Lid2,,,,Regeling en bestuur kunnen van de besturen van provincies en gemeenten worden gevorderd bij of krachtens de wet.,21-12-2018,jci1.3:c:BWBR0001840&hoofdstuk=7&artikel=124&lid=2&z=2018-12-21&g=2018-12-21
257,Hoofdstuk7,Artikel125,Lid1,,,,"Aan het hoofd van de provincie en de gemeente staan provinciale staten onderscheidenlijk de gemeenteraad. Hun vergaderingen zijn openbaar, behoudens bij de wet te regelen uitzonderingen.",21-12-2018,jci1.3:c:BWBR0001840&hoofdstuk=7&artikel=125&lid=1&z=2018-12-21&g=2018-12-21
258,Hoofdstuk7,Artikel125,Lid2,,,,"Van het bestuur van de provincie maken ook deel uit gedeputeerde staten en de commissaris van de Koning, van het bestuur van de gemeente het college van burgemeester en wethouders en de burgemeester.",21-12-2018,jci1.3:c:BWBR0001840&hoofdstuk=7&artikel=125&lid=2&z=2018-12-21&g=2018-12-21
259,Hoofdstuk7,Artikel126,,,,,"Bij de wet kan worden bepaald, dat de commissaris van de Koning wordt belast met de uitvoering van een door de regering te geven ambtsinstructie.",21-12-2018,jci1.3:c:BWBR0001840&hoofdstuk=7&artikel=126&z=2018-12-21&g=2018-12-21
260,Hoofdstuk7,Artikel127,,,,,"Provinciale staten en de gemeenteraad stellen, behoudens bij de wet of door hen krachtens de wet te bepalen uitzonderingen, de provinciale onderscheidenlijk de gemeentelijke verordeningen vast.",21-12-2018,jci1.3:c:BWBR0001840&hoofdstuk=7&artikel=127&z=2018-12-21&g=2018-12-21
261,Hoofdstuk7,Artikel128,,,,,"Behoudens in de gevallen bedoeld in , kan de toekenning van bevoegdheden, als bedoeld in , aan andere organen dan die, genoemd in , alleen door provinciale staten onderscheidenlijk de gemeenteraad geschieden.artikel 123",21-12-2018,jci1.3:c:BWBR0001840&hoofdstuk=7&artikel=128&z=2018-12-21&g=2018-12-21
262,Hoofdstuk7,Artikel129,Lid1,,,,"De leden van provinciale staten en van de gemeenteraad worden rechtstreeks gekozen door de Nederlanders, tevens ingezetenen van de provincie onderscheidenlijk de gemeente, die voldoen aan de vereisten die gelden voor de verkiezing van de Tweede Kamer der Staten-Generaal. Voor het lidmaatschap gelden dezelfde vereisten.",21-12-2018,jci1.3:c:BWBR0001840&hoofdstuk=7&artikel=129&lid=1&z=2018-12-21&g=2018-12-21
263,Hoofdstuk7,Artikel129,Lid2,,,,De leden worden gekozen op de grondslag van evenredige vertegenwoordiging binnen door de wet te stellen grenzen.,21-12-2018,jci1.3:c:BWBR0001840&hoofdstuk=7&artikel=129&lid=2&z=2018-12-21&g=2018-12-21
264,Hoofdstuk7,Artikel129,Lid3,,,,"De , en  zijn van toepassing.  is van overeenkomstige toepassing.artikelen 53, tweede lid",21-12-2018,jci1.3:c:BWBR0001840&hoofdstuk=7&artikel=129&lid=3&z=2018-12-21&g=2018-12-21
265,Hoofdstuk7,Artikel129,Lid4,,,,"De zittingsduur van provinciale staten en de gemeenteraad is vier jaren, behoudens bij de wet te bepalen uitzonderingen.",21-12-2018,jci1.3:c:BWBR0001840&hoofdstuk=7&artikel=129&lid=4&z=2018-12-21&g=2018-12-21
266,Hoofdstuk7,Artikel129,Lid5,,,,"De wet bepaalt welke betrekkingen niet gelijktijdig met het lidmaatschap kunnen worden uitgeoefend. De wet kan bepalen, dat beletselen voor het lidmaatschap voortvloeien uit verwantschap of huwelijk en dat het verrichten van bij de wet aangewezen handelingen tot het verlies van het lidmaatschap kan leiden.",21-12-2018,jci1.3:c:BWBR0001840&hoofdstuk=7&artikel=129&lid=5&z=2018-12-21&g=2018-12-21
267,Hoofdstuk7,Artikel129,Lid6,,,,De leden stemmen zonder last.,21-12-2018,jci1.3:c:BWBR0001840&hoofdstuk=7&artikel=129&lid=6&z=2018-12-21&g=2018-12-21
268,Hoofdstuk7,Artikel130,,,,,"De wet kan het recht de leden van de gemeenteraad te kiezen en het recht lid van de gemeenteraad te zijn toekennen aan ingezetenen, die geen Nederlander zijn, mits zij tenminste voldoen aan de vereisten die gelden voor ingezetenen die tevens Nederlander zijn.",21-12-2018,jci1.3:c:BWBR0001840&hoofdstuk=7&artikel=130&z=2018-12-21&g=2018-12-21
269,Hoofdstuk7,Artikel131,,,,,"De commissaris van de Koning en de burgemeester worden aangesteld, geschorst en ontslagen op een bij de wet te bepalen wijze. Krachtens de wet kunnen nadere regels worden gesteld over de daarbij te volgen procedures.",21-12-2018,jci1.3:c:BWBR0001840&hoofdstuk=7&artikel=131&z=2018-12-21&g=2018-12-21
270,Hoofdstuk7,Artikel132,Lid1,,,,"De wet regelt de inrichting van provincies en gemeenten, alsmede de samenstelling en bevoegdheid van hun besturen.",21-12-2018,jci1.3:c:BWBR0001840&hoofdstuk=7&artikel=132&lid=1&z=2018-12-21&g=2018-12-21
271,Hoofdstuk7,Artikel132,Lid2,,,,De wet regelt het toezicht op deze besturen.,21-12-2018,jci1.3:c:BWBR0001840&hoofdstuk=7&artikel=132&lid=2&z=2018-12-21&g=2018-12-21
272,Hoofdstuk7,Artikel132,Lid3,,,,Besluiten van deze besturen kunnen slechts aan voorafgaand toezicht worden onderworpen in bij of krachtens de wet te bepalen gevallen.,21-12-2018,jci1.3:c:BWBR0001840&hoofdstuk=7&artikel=132&lid=3&z=2018-12-21&g=2018-12-21
273,Hoofdstuk7,Artikel132,Lid4,,,,Vernietiging van besluiten van deze besturen kan alleen geschieden bij koninklijk besluit wegens strijd met het recht of het algemeen belang.,21-12-2018,jci1.3:c:BWBR0001840&hoofdstuk=7&artikel=132&lid=4&z=2018-12-21&g=2018-12-21
274,Hoofdstuk7,Artikel132,Lid5,,,,"De wet regelt de voorzieningen bij in gebreke blijven ten aanzien van regeling en bestuur, gevorderd krachtens . Bij de wet kunnen met afwijking van de  en  voorzieningen worden getroffen voor het geval het bestuur van een provincie of een gemeente zijn taken grovelijk verwaarloost.artikel 124, tweede lid",21-12-2018,jci1.3:c:BWBR0001840&hoofdstuk=7&artikel=132&lid=5&z=2018-12-21&g=2018-12-21
275,Hoofdstuk7,Artikel132,Lid6,,,,De wet bepaalt welke belastingen door de besturen van provincies en gemeenten kunnen worden geheven en regelt hun financile verhouding tot het Rijk.,21-12-2018,jci1.3:c:BWBR0001840&hoofdstuk=7&artikel=132&lid=6&z=2018-12-21&g=2018-12-21
276,Hoofdstuk7,Artikel132a,Lid1,,,,Bij de wet kunnen in het Caribische deel van Nederland andere territoriale openbare lichamen dan provincies en gemeenten worden ingesteld en opgeheven.,21-12-2018,jci1.3:c:BWBR0001840&hoofdstuk=7&artikel=132a&lid=1&z=2018-12-21&g=2018-12-21
277,Hoofdstuk7,Artikel132a,Lid2,,,,"De ,  en  zijn ten aanzien van deze openbare lichamen van overeenkomstige toepassing.artikelen 124",21-12-2018,jci1.3:c:BWBR0001840&hoofdstuk=7&artikel=132a&lid=2&z=2018-12-21&g=2018-12-21
278,Hoofdstuk7,Artikel132a,Lid3,,,,In deze openbare lichamen worden verkiezingen gehouden voor een kiescollege voor de Eerste Kamer.  is van overeenkomstige toepassing.Artikel 129,21-12-2018,jci1.3:c:BWBR0001840&hoofdstuk=7&artikel=132a&lid=3&z=2018-12-21&g=2018-12-21
279,Hoofdstuk7,Artikel132a,Lid4,,,,Voor deze openbare lichamen kunnen regels worden gesteld en andere specifieke maatregelen worden getroffen met het oog op bijzondere omstandigheden waardoor deze openbare lichamen zich wezenlijk onderscheiden van het Europese deel van Nederland.,21-12-2018,jci1.3:c:BWBR0001840&hoofdstuk=7&artikel=132a&lid=4&z=2018-12-21&g=2018-12-21
280,Hoofdstuk7,Artikel133,Lid1,,,,"De opheffing en instelling van waterschappen, de regeling van hun taken en inrichting, alsmede de samenstelling van hun besturen, geschieden volgens bij de wet te stellen regels bij provinciale verordening, voor zover bij of krachtens de wet niet anders is bepaald.",21-12-2018,jci1.3:c:BWBR0001840&hoofdstuk=7&artikel=133&lid=1&z=2018-12-21&g=2018-12-21
281,Hoofdstuk7,Artikel133,Lid2,,,,"De wet regelt de verordenende en andere bevoegdheden van de besturen van de waterschappen, alsmede de openbaarheid van hun vergaderingen.",21-12-2018,jci1.3:c:BWBR0001840&hoofdstuk=7&artikel=133&lid=2&z=2018-12-21&g=2018-12-21
282,Hoofdstuk7,Artikel133,Lid3,,,,De wet regelt het provinciale en overige toezicht op deze besturen. Vernietiging van besluiten van deze besturen kan alleen geschieden wegens strijd met het recht of het algemeen belang.,21-12-2018,jci1.3:c:BWBR0001840&hoofdstuk=7&artikel=133&lid=3&z=2018-12-21&g=2018-12-21
283,Hoofdstuk7,Artikel134,Lid1,,,,Bij of krachtens de wet kunnen openbare lichamen voor beroep en bedrijf en andere openbare lichamen worden ingesteld en opgeheven.,21-12-2018,jci1.3:c:BWBR0001840&hoofdstuk=7&artikel=134&lid=1&z=2018-12-21&g=2018-12-21
284,Hoofdstuk7,Artikel134,Lid2,,,,"De wet regelt de taken en de inrichting van deze openbare lichamen, de samenstelling en bevoegdheid van hun besturen, alsmede de openbaarheid van hun vergaderingen. Bij of krachtens de wet kan aan hun besturen verordenende bevoegdheid worden verleend.",21-12-2018,jci1.3:c:BWBR0001840&hoofdstuk=7&artikel=134&lid=2&z=2018-12-21&g=2018-12-21
285,Hoofdstuk7,Artikel134,Lid3,,,,De wet regelt het toezicht op deze besturen. Vernietiging van besluiten van deze besturen kan alleen geschieden wegens strijd met het recht of het algemeen belang.,21-12-2018,jci1.3:c:BWBR0001840&hoofdstuk=7&artikel=134&lid=3&z=2018-12-21&g=2018-12-21
286,Hoofdstuk7,Artikel135,,,,,"De wet geeft regels ter voorziening in zaken waarbij twee of meer openbare lichamen zijn betrokken. Daarbij kan in de instelling van een nieuw openbaar lichaam worden voorzien, in welk geval , van toepassing is.artikel 134, tweede en derde lid",21-12-2018,jci1.3:c:BWBR0001840&hoofdstuk=7&artikel=135&z=2018-12-21&g=2018-12-21
287,Hoofdstuk7,Artikel136,,,,,"De geschillen tussen openbare lichamen worden bij koninklijk besluit beslist, tenzij deze behoren tot de kennisneming van de rechterlijke macht of hun beslissing bij de wet aan anderen is opgedragen.",21-12-2018,jci1.3:c:BWBR0001840&hoofdstuk=7&artikel=136&z=2018-12-21&g=2018-12-21
288,Hoofdstuk8,Artikel137,Lid1,,,,"De wet verklaart, dat een verandering in de Grondwet, zoals zij die voorstelt, in overweging zal worden genomen.",21-12-2018,jci1.3:c:BWBR0001840&hoofdstuk=8&artikel=137&lid=1&z=2018-12-21&g=2018-12-21
289,Hoofdstuk8,Artikel137,Lid2,,,,"De Tweede Kamer kan, al dan niet op een daartoe door of vanwege de Koning ingediend voorstel, een voorstel voor zodanige wet splitsen.",21-12-2018,jci1.3:c:BWBR0001840&hoofdstuk=8&artikel=137&lid=2&z=2018-12-21&g=2018-12-21
290,Hoofdstuk8,Artikel137,Lid3,,,,"Na de bekendmaking van de wet, bedoeld in het eerste lid, wordt de Tweede Kamer ontbonden.",21-12-2018,jci1.3:c:BWBR0001840&hoofdstuk=8&artikel=137&lid=3&z=2018-12-21&g=2018-12-21
291,Hoofdstuk8,Artikel137,Lid4,,,,"Nadat de nieuwe Tweede Kamer is samengekomen, overwegen beide kamers in tweede lezing het voorstel tot verandering, bedoeld in het eerste lid. Zij kunnen dit alleen aannemen met ten minste twee derden van het aantal uitgebrachte stemmen.",21-12-2018,jci1.3:c:BWBR0001840&hoofdstuk=8&artikel=137&lid=4&z=2018-12-21&g=2018-12-21
292,Hoofdstuk8,Artikel137,Lid5,,,,"De Tweede Kamer kan, al dan niet op een daartoe door of vanwege de Koning ingediend voorstel, met ten minste twee derden van het aantal uitgebrachte stemmen een voorstel tot verandering splitsen.",21-12-2018,jci1.3:c:BWBR0001840&hoofdstuk=8&artikel=137&lid=5&z=2018-12-21&g=2018-12-21
293,Hoofdstuk8,Artikel138,Lid1,,,,"Voordat de in tweede lezing aangenomen voorstellen tot verandering in de Grondwet door de Koning worden bekrachtigd, kunnen bij de wet:",21-12-2018,jci1.3:c:BWBR0001840&hoofdstuk=8&artikel=138&lid=1&z=2018-12-21&g=2018-12-21
294,Hoofdstuk8,Artikel138,Lid1,Onderdeela,,,de aangenomen voorstellen en de ongewijzigd gebleven bepalingen van de Grondwet voor zoveel nodig aan elkaar worden aangepast;,21-12-2018,jci1.3:c:BWBR0001840&hoofdstuk=8&artikel=138&lid=1&o=a&z=2018-12-21&g=2018-12-21
295,Hoofdstuk8,Artikel138,Lid1,Onderdeelb,,,"de indeling in en de plaats van hoofdstukken, paragrafen en artikelen, alsmede de opschriften worden gewijzigd.",21-12-2018,jci1.3:c:BWBR0001840&hoofdstuk=8&artikel=138&lid=1&o=b&z=2018-12-21&g=2018-12-21
296,Hoofdstuk8,Artikel138,Lid2,,,,"Een voorstel van wet, houdende voorzieningen als bedoeld in het eerste lid onder a, kunnen de kamers alleen aannemen met ten minste twee derden van het aantal uitgebrachte stemmen.",21-12-2018,jci1.3:c:BWBR0001840&hoofdstuk=8&artikel=138&lid=2&z=2018-12-21&g=2018-12-21
297,Hoofdstuk8,Artikel139,,,,,"De veranderingen in de Grondwet, door de Staten-Generaal aangenomen en door de Koning bekrachtigd, treden terstond in werking, nadat zij zijn bekendgemaakt.",21-12-2018,jci1.3:c:BWBR0001840&hoofdstuk=8&artikel=139&z=2018-12-21&g=2018-12-21
298,Hoofdstuk8,Artikel140,,,,,"Bestaande wetten en andere regelingen en besluiten die in strijd zijn met een verandering in de Grondwet, blijven gehandhaafd, totdat daarvoor overeenkomstig de Grondwet een voorziening is getroffen.",21-12-2018,jci1.3:c:BWBR0001840&hoofdstuk=8&artikel=140&z=2018-12-21&g=2018-12-21
299,Hoofdstuk8,Artikel141,,,,,"De tekst van de herziene Grondwet wordt bij koninklijk besluit bekendgemaakt, waarbij hoofdstukken, paragrafen en artikelen kunnen worden vernummerd en verwijzingen dienovereenkomstig kunnen worden veranderd.",21-12-2018,jci1.3:c:BWBR0001840&hoofdstuk=8&artikel=141&z=2018-12-21&g=2018-12-21
300,Hoofdstuk8,Artikel142,,,,,"De Grondwet kan bij de wet met het  in overeenstemming worden gebracht. De ,  en  zijn van overeenkomstige toepassing.artikelen 139Statuut voor het Koninkrijk der Nederlanden",21-12-2018,jci1.3:c:BWBR0001840&hoofdstuk=8&artikel=142&z=2018-12-21&g=2018-12-21
301,Hoofdstuk,ArtikelI,,,,,De  en  treden eerst na vier jaar of op een bij of krachtens de wet te bepalen eerder tijdstip in werking.artikelen 57a,21-12-2018,jci1.3:c:BWBR0001840&artikel=I&z=2018-12-21&g=2018-12-21
302,Hoofdstuk,ArtikelII,,,,,", naar de tekst van 1983 blijft gedurende vijf jaren of een bij of krachtens de wet te bepalen kortere termijn van kracht. Deze termijn kan bij de wet voor ten hoogste vijf jaren worden verlengd.Artikel 54, tweede lid",21-12-2018,jci1.3:c:BWBR0001840&artikel=II&z=2018-12-21&g=2018-12-21
303,Hoofdstuk,ArtikelII,Onderdeel,,,,"Artikel 54, tweede lid",21-12-2018,jci1.3:c:BWBR0001840&artikel=II&z=2018-12-21&g=2018-12-21
304,Hoofdstuk,ArtikelII,Onderdeel,,,,Van het kiesrecht is uitgesloten:,21-12-2018,jci1.3:c:BWBR0001840&artikel=II&z=2018-12-21&g=2018-12-21
305,Hoofdstuk,ArtikelII,Onderdeela,,,,hij die wegens het begaan van een daartoe bij de wet aangewezen delict bij onherroepelijke rechterlijke uitspraak is veroordeeld tot een vrijheidsstraf van ten minste een jaar en hierbij tevens is ontzet van het kiesrecht;,21-12-2018,jci1.3:c:BWBR0001840&artikel=II&o=a&z=2018-12-21&g=2018-12-21
306,Hoofdstuk,ArtikelII,Onderdeelb,,,,hij die krachtens onherroepelijke rechterlijke uitspraak wegens een geestelijke stoornis onbekwaam is rechtshandelingen te verrichten.,21-12-2018,jci1.3:c:BWBR0001840&artikel=II&o=b&z=2018-12-21&g=2018-12-21
307,Hoofdstuk,ArtikelIII,,,,,Vervallen,01-11-1995,jci1.3:c:BWBR0001840&artikel=III&z=2018-12-21&g=2018-12-21
308,Hoofdstuk,ArtikelIV,,,,,Wijzigt het Statuut voor het Koninkrijk der Nederlanden.,17-11-2017,jci1.3:c:BWBR0001840&artikel=IV&z=2018-12-21&g=2018-12-21
309,Hoofdstuk,ArtikelV,,,,,Vervallen,01-11-1995,jci1.3:c:BWBR0001840&artikel=V&z=2018-12-21&g=2018-12-21
310,Hoofdstuk,ArtikelVI,,,,,Vervallen,01-11-1995,jci1.3:c:BWBR0001840&artikel=VI&z=2018-12-21&g=2018-12-21
311,Hoofdstuk,ArtikelVII,,,,,Vervallen,01-11-1995,jci1.3:c:BWBR0001840&artikel=VII&z=2018-12-21&g=2018-12-21
312,Hoofdstuk,ArtikelVIII,,,,,Vervallen,01-11-1995,jci1.3:c:BWBR0001840&artikel=VIII&z=2018-12-21&g=2018-12-21
313,Hoofdstuk,ArtikelIX,,,,,"is niet van toepassing ten aanzien van feiten, strafbaar gesteld krachtens het .Artikel 16Besluit Buitengewoon Strafrecht",21-12-2018,jci1.3:c:BWBR0001840&artikel=IX&z=2018-12-21&g=2018-12-21
314,Hoofdstuk,ArtikelX,,,,,Vervallen,01-11-1995,jci1.3:c:BWBR0001840&artikel=X&z=2018-12-21&g=2018-12-21
315,Hoofdstuk,ArtikelXI,,,,,Vervallen,02-11-1999,jci1.3:c:BWBR0001840&artikel=XI&z=2018-12-21&g=2018-12-21
316,Hoofdstuk,ArtikelXII,,,,,Vervallen,01-11-1995,jci1.3:c:BWBR0001840&artikel=XII&z=2018-12-21&g=2018-12-21
317,Hoofdstuk,ArtikelXIII,,,,,Vervallen,01-11-1995,jci1.3:c:BWBR0001840&artikel=XIII&z=2018-12-21&g=2018-12-21
318,Hoofdstuk,ArtikelXIV,,,,,Vervallen,01-11-1995,jci1.3:c:BWBR0001840&artikel=XIV&z=2018-12-21&g=2018-12-21
319,Hoofdstuk,ArtikelXV,,,,,Vervallen,01-11-1995,jci1.3:c:BWBR0001840&artikel=XV&z=2018-12-21&g=2018-12-21
320,Hoofdstuk,ArtikelXVI,,,,,Vervallen,01-11-1995,jci1.3:c:BWBR0001840&artikel=XVI&z=2018-12-21&g=2018-12-21
321,Hoofdstuk,ArtikelXVII,,,,,Vervallen,25-03-1999,jci1.3:c:BWBR0001840&artikel=XVII&z=2018-12-21&g=2018-12-21
322,Hoofdstuk,ArtikelXVIII,,,,,Vervallen,01-11-1995,jci1.3:c:BWBR0001840&artikel=XVIII&z=2018-12-21&g=2018-12-21
323,Hoofdstuk,ArtikelXIX,,,,,"Het formulier van afkondiging, vastgesteld bij artikel 81 en de formulieren van verzending en kennisgeving, vastgesteld bij de artikelen 123, 124, 127, 128 en 130 van de Grondwet naar de tekst van 1972, blijven van kracht totdat daarvoor een regeling is getroffen.",21-12-2018,jci1.3:c:BWBR0001840&artikel=XIX&z=2018-12-21&g=2018-12-21
324,Hoofdstuk,ArtikelXIX,OnderdeelArtikel_1,,,,81,21-12-2018,jci1.3:c:BWBR0001840&artikel=XIX&o=Artikel&z=2018-12-21&g=2018-12-21
325,Hoofdstuk,ArtikelXIX,OnderdeelArtikel_1,,,,Het formulier van afkondiging der wetten is het volgende:,21-12-2018,jci1.3:c:BWBR0001840&artikel=XIX&o=Artikel&z=2018-12-21&g=2018-12-21
326,Hoofdstuk,ArtikelXIX,OnderdeelArtikel_1,,,,"""Wij"" enz. ""Koning der Nederlanden"", enz.",21-12-2018,jci1.3:c:BWBR0001840&artikel=XIX&o=Artikel&z=2018-12-21&g=2018-12-21
327,Hoofdstuk,ArtikelXIX,OnderdeelArtikel_1,,,,"""Allen, die deze zullen zien of horen lezen, saluut! doen te weten:",21-12-2018,jci1.3:c:BWBR0001840&artikel=XIX&o=Artikel&z=2018-12-21&g=2018-12-21
328,Hoofdstuk,ArtikelXIX,OnderdeelArtikel_1,,,,"""Alzo Wij in overweging genomen hebben, dat"" enz.",21-12-2018,jci1.3:c:BWBR0001840&artikel=XIX&o=Artikel&z=2018-12-21&g=2018-12-21
329,Hoofdstuk,ArtikelXIX,OnderdeelArtikel_1,,,,(De beweegredenen der wet).,21-12-2018,jci1.3:c:BWBR0001840&artikel=XIX&o=Artikel&z=2018-12-21&g=2018-12-21
330,Hoofdstuk,ArtikelXIX,OnderdeelArtikel_1,,,,"""Zo is het, dat Wij, de Raad van State gehoord, en met gemeen overleg der Staten-Generaal, hebben goedgevonden en verstaan, gelijk Wij goedvinden en verstaan bij deze"" enz.",21-12-2018,jci1.3:c:BWBR0001840&artikel=XIX&o=Artikel&z=2018-12-21&g=2018-12-21
331,Hoofdstuk,ArtikelXIX,OnderdeelArtikel_1,,,,(De inhoud der wet).,21-12-2018,jci1.3:c:BWBR0001840&artikel=XIX&o=Artikel&z=2018-12-21&g=2018-12-21
332,Hoofdstuk,ArtikelXIX,OnderdeelArtikel_1,,,,"""Gegeven"". enz.",21-12-2018,jci1.3:c:BWBR0001840&artikel=XIX&o=Artikel&z=2018-12-21&g=2018-12-21
333,Hoofdstuk,ArtikelXIX,OnderdeelArtikel_1,,,,"Ingeval een Koningin regeert of het Koninklijk gezag door een Regent of door de Raad van State wordt waargenomen, wordt de daardoor nodige wijziging in dit formulier gebracht.",21-12-2018,jci1.3:c:BWBR0001840&artikel=XIX&o=Artikel&z=2018-12-21&g=2018-12-21
334,Hoofdstuk,ArtikelXIX,OnderdeelArtikel_2,,,,130,21-12-2018,jci1.3:c:BWBR0001840&artikel=XIX&z=2018-12-21&g=2018-12-21
335,Hoofdstuk,ArtikelXIX,OnderdeelArtikel_2,,,,"De Koning doet de Staten-Generaal zo spoedig mogelijk kennis dragen, of hij een voorstel van wet, door hen aangenomen, al dan niet goedkeurt. Die kennisgeving geschiedt met een der volgende formulieren:",21-12-2018,jci1.3:c:BWBR0001840&artikel=XIX&z=2018-12-21&g=2018-12-21
336,Hoofdstuk,ArtikelXIX,OnderdeelArtikel_2,,,,"""De Koning bewilligt in het voorstel.""",21-12-2018,jci1.3:c:BWBR0001840&artikel=XIX&z=2018-12-21&g=2018-12-21
337,Hoofdstuk,ArtikelXIX,OnderdeelArtikel_2,,,,of:,21-12-2018,jci1.3:c:BWBR0001840&artikel=XIX&z=2018-12-21&g=2018-12-21
338,Hoofdstuk,ArtikelXIX,OnderdeelArtikel_2,,,,"""De Koning houdt het voorstel in overweging.""",21-12-2018,jci1.3:c:BWBR0001840&artikel=XIX&z=2018-12-21&g=2018-12-21
339,Hoofdstuk,ArtikelXX,,,,,Vervallen,01-11-1995,jci1.3:c:BWBR0001840&artikel=XX&z=2018-12-21&g=2018-12-21
340,Hoofdstuk,ArtikelXXI,,,,,Vervallen,02-11-1999,jci1.3:c:BWBR0001840&artikel=XXI&z=2018-12-21&g=2018-12-21
341,Hoofdstuk,ArtikelXXII,,,,,Vervallen,01-11-1995,jci1.3:c:BWBR0001840&artikel=XXII&z=2018-12-21&g=2018-12-21
342,Hoofdstuk,ArtikelXXIII,,,,,Vervallen,01-11-1995,jci1.3:c:BWBR0001840&artikel=XXIII&z=2018-12-21&g=2018-12-21
343,Hoofdstuk,ArtikelXXIV,,,,,Vervallen,25-03-1999,jci1.3:c:BWBR0001840&artikel=XXIV&z=2018-12-21&g=2018-12-21
344,Hoofdstuk,ArtikelXXV,,,,,Vervallen,25-03-1999,jci1.3:c:BWBR0001840&artikel=XXV&z=2018-12-21&g=2018-12-21
345,Hoofdstuk,ArtikelXXVI,,,,,Vervallen,01-11-1995,jci1.3:c:BWBR0001840&artikel=XXVI&z=2018-12-21&g=2018-12-21
346,Hoofdstuk,ArtikelXXVII,,,,,Vervallen,01-11-1995,jci1.3:c:BWBR0001840&artikel=XXVII&z=2018-12-21&g=2018-12-21
347,Hoofdstuk,ArtikelXXVIII,,,,,Vervallen,01-11-1995,jci1.3:c:BWBR0001840&artikel=XXVIII&z=2018-12-21&g=2018-12-21
348,Hoofdstuk,ArtikelXXIX,,,,,Vervallen,01-11-1995,jci1.3:c:BWBR0001840&artikel=XXIX&z=2018-12-21&g=2018-12-21
349,Hoofdstuk,ArtikelXXX,,,,,Vervallen,02-11-1999,jci1.3:c:BWBR0001840&artikel=XXX&z=2018-12-21&g=2018-12-21
